
 Média do Conjunto de Treinamento por Feature:
[0.29702381 0.358125   0.3641369  0.05965278 0.06746795 0.13044872
 0.27806548 0.26035714 0.36996795 0.14592949 0.09778846 0.14503205
 0.04537879 0.02348485 0.08365385 0.04711806 0.01416667 0.04402778
 0.09267857 0.03983974 0.10032738 0.01445833 0.00402778 0.02524306
 0.1286859  0.279      0.17483333 0.05583333 0.04094697 0.09254167
 0.24907051 0.22130952 0.31375    0.10875    0.07138889 0.11704861
 0.03587963 0.01475    0.06185606 0.02325    0.006625   0.02354167
 0.05307692 0.018125   0.05886364 0.00935185 0.00381944 0.0175
 0.07614583 0.1985     0.12958333 0.02944444 0.02489583 0.04677083
 0.20166667 0.18458333 0.2853125  0.05916667 0.04283333 0.0635
 0.01972222 0.01166667 0.0425     0.0084375  0.00444444 0.0078125
 0.03680556 0.00722222 0.05104167 0.005625   0.0025     0.00583333
 0.09012821 0.21140625 0.14825758 0.05078125 0.03554167 0.08240741
 0.20881944 0.18884615 0.31083333 0.09375    0.05229167 0.10189394
 0.02425    0.01045139 0.04432692 0.02005208 0.00677083 0.034375
 0.06072917 0.0175     0.07       0.00731481 0.00458333 0.01395833
 0.07604167 0.19666667 0.13305556 0.03111111 0.02427083 0.06180556
 0.2        0.18333333 0.22816667 0.05770833 0.05114583 0.07947917
 0.01930556 0.01125    0.05388889 0.00930556 0.00333333 0.01055556
 0.03763889 0.00888889 0.03472222 0.00666667 0.0025     0.00645833
 0.004375   0.05050926 0.00291667 0.00604167 0.004375   0.00979167
 0.04604167 0.045625   0.08069444 0.009375   0.01       0.02486111
 0.00680556 0.00291667 0.01083333 0.0025     0.00083333 0.00166667
 0.00729167 0.00229167 0.0075     0.00375    0.00083333 0.00125
 0.08152778 0.18243056 0.1690625  0.04125    0.03541667 0.09069444
 0.22020833 0.15722222 0.30729167 0.07989583 0.06427083 0.08341667
 0.02197917 0.01239583 0.0465     0.02       0.00708333 0.02375
 0.05069444 0.01416667 0.06       0.0075     0.0025     0.01145833]
Média do Conjunto de Treinamento por Feature:
[0.25481683 0.2477816  0.25594957 0.11322041 0.14065867 0.17425495
 0.20558465 0.22168543 0.23444708 0.16425959 0.15298168 0.16690926
 0.10950047 0.08376952 0.15421131 0.11760202 0.07979569 0.11506934
 0.1583395  0.12304917 0.16302668 0.0648983  0.03827869 0.07729475
 0.14568277 0.21712712 0.1744992  0.12476367 0.11257228 0.15874048
 0.19467232 0.21965879 0.2125507  0.15212641 0.14005097 0.1641842
 0.1124626  0.06939576 0.14566603 0.08407004 0.05643825 0.08401363
 0.1163354  0.07863831 0.12601906 0.05560176 0.0437982  0.08161705
 0.13133426 0.18823146 0.1876137  0.106561   0.09725391 0.11513122
 0.1968696  0.21987646 0.22633379 0.12495555 0.10984218 0.12261491
 0.09319393 0.07234818 0.13016816 0.05358654 0.05072317 0.05068701
 0.12166659 0.05395185 0.16393265 0.06348905 0.04322904 0.05743958
 0.11732633 0.18769463 0.16056587 0.12132371 0.0983156  0.13884876
 0.18005206 0.19118351 0.21983526 0.14091862 0.10842658 0.15083512
 0.0860442  0.05644897 0.11098499 0.07365281 0.05584101 0.11246945
 0.13706176 0.07185054 0.14928999 0.04612552 0.05381133 0.0671998
 0.13089817 0.18740924 0.18973646 0.10994387 0.09414909 0.1555292
 0.195789   0.21753671 0.18395644 0.12291155 0.13194751 0.15003729
 0.09102034 0.07336686 0.16684342 0.06423682 0.04194904 0.06582571
 0.12064633 0.0617242  0.1130303  0.06737128 0.04322904 0.05827341
 0.03861704 0.09667969 0.04072051 0.05650367 0.04875134 0.0722262
 0.10589381 0.11457178 0.15933159 0.05367364 0.06230154 0.10489183
 0.05853124 0.04014802 0.06798693 0.04074821 0.02885548 0.0322318
 0.06958926 0.03946199 0.07031181 0.06112232 0.02885548 0.03533324
 0.10181901 0.16497508 0.17225876 0.12214257 0.10919131 0.18172649
 0.18539923 0.16970472 0.2134756  0.13936982 0.14200752 0.13610655
 0.08786377 0.06596629 0.11960107 0.10808947 0.07325635 0.11751995
 0.13802334 0.07566526 0.14754786 0.07031181 0.04074821 0.07755346]
Treino do Gaussian Naive Bayes Terminado. (Tempo de execucao: 0.014966249465942383)
Treino do Logistic Regression Terminado. (Tempo de execucao: 0.09936261177062988)
Treino do Decision Tree Terminado. (Tempo de execucao: 0.1299281120300293)
Treino do K-Nearest Neighbors Terminado. (Tempo de execucao: 0.03623843193054199)
Treino do Linear Discriminant Analysis Terminado. (Tempo de execucao: 0.48042726516723633)
Treino do Support Vector Machine Terminado. (Tempo de execucao: 2.3387651443481445)
Treino do RandomForest Terminado. (Tempo de execucao: 0.10035586357116699)
TreinoDesvio Padrão do Conjunto de Treinamento por Feature: do Neural Net Terminado. (Tempo de execucao: 9.533857822418213)
Acuracia obtida com o Gaussian Naive Bayes no Conjunto de Treinamento: 0.60
Acuracia obtida com o Gaussian Naive Bayes no Conjunto de Teste: 0.62
Matriz de Confusão:
[[ 76 211]
 [ 17 296]]
Precision: 0.70052
Recall: 0.60525
F1-score: 0.56098
(Tempo de execucao: 0.01494)

Acuracia obtida com o Logistic Regression no Conjunto de Treinamento: 0.52
Acuracia obtida com o Logistic Regression no Conjunto de Teste: 0.54
Matriz de Confusão:
[[ 10 277]
 [  0 313]]
Precision: 0.76525
Recall: 0.51742
F1-score: 0.38029
(Tempo de execucao: 0.01403)

Acuracia obtida com o Decision Tree no Conjunto de Treinamento: 0.70
Acuracia obtida com o Decision Tree no Conjunto de Teste: 0.69
Matriz de Confusão:
[[151 136]
 [ 48 265]]
Precision: 0.70982
Recall: 0.68639F1-score: 0.68185
(Tempo de execucao: 0.01469)

Acuracia obtida com o K-Nearest Neighbors no Conjunto de Treinamento: 0.51
Acuracia obtida com o K-Nearest Neighbors no Conjunto de Teste: 0.53
Matriz de Confusão:
[[  7 280]
 [  3 310]]
Precision: 0.61271
Recall: 0.50740
F1-score: 0.36687
(Tempo de execucao: 5.47597)

Acuracia obtida com o Linear Discriminant Analysis no Conjunto de Treinamento: 0.53
Acuracia obtida com o Linear Discriminant Analysis no Conjunto de Teste: 0.55
Matriz de Confusão:
[[ 19 268]
 [  0 313]]
Precision: 0.76936
Recall: 0.53310
F1-score: 0.41220
(Tempo de execucao: 0.02559)

Acuracia obtida com o Support Vector Machine no Conjunto de Treinamento: 0.50
Acuracia obtida com o Support Vector Machine no Conjunto de Teste: 0.52
Matriz de Confusão:
[[  0 287]
 [  0 313]]
Precision: 0.26083
Recall: 0.50000
F1-score: 0.34283
(Tempo de execucao: 1.60215)

Acuracia obtida com o RandomForest no Conjunto de Treinamento: 0.67
Acuracia obtida com o RandomForest no Conjunto de Teste: 0.68
Matriz de Confusão:
[[127 160]
 [ 31 282]]
Precision: 0.72090
Recall: 0.67173
F1-score: 0.65890
(Tempo de execucao: 0.01827)

Acuracia obtida com o Neural Net no Conjunto de Treinamento: 0.51
Acuracia obtida com o Neural Net no Conjunto de Teste: 0.53
Matriz de Confusão:
[[  7 280]
 [  0 313]]
Precision: 0.76391
Recall: 0.51220
F1-score: 0.36928
(Tempo de execucao: 0.02476)
