
#######Tipo de Nomalização MinMaxScaler#############

[[0.53846154 0.35714286 0.53846154 ... 0.         0.         0.        ]
 [0.38461538 0.78571429 0.07692308 ... 0.         0.         0.        ]
 [0.07692308 0.5        0.23076923 ... 0.         0.         0.        ]
 ...
 [0.15384615 0.5        0.92307692 ... 0.         0.         0.        ]
 [0.38461538 0.         0.07692308 ... 0.         0.         0.        ]
 [0.84615385 0.28571429 0.         ... 0.         0.         0.        ]]
Elbow Method: Número de Cluster - 2 Valor - 869.9568574449855

Elbow Method: Número de Cluster - 3 Valor - 804.9772218618689

Elbow Method: Número de Cluster - 4 Valor - 755.7605777179991

Elbow Method: Número de Cluster - 5 Valor - 725.2582012286576

Elbow Method: Número de Cluster - 6 Valor - 695.4310697074197

Elbow Method: Número de Cluster - 7 Valor - 670.8389771136863

Elbow Method: Número de Cluster - 8 Valor - 655.9231788635457

Elbow Method: Número de Cluster - 9 Valor - 626.5717466354567

Elbow Method: Número de Cluster - 10 Valor - 619.288466902383

VARIÂNCIA DAS MELHORES FEATURES
[0.14841381 0.10945042]

COORDENADA DOS CENTROIDES

[[-0.67269073 -0.05315639]
 [ 0.74350028  0.0587518 ]]

TABELA DE DISTÂNCIAS

[[1.01805804 0.82298675]
 [0.50904956 1.79921169]
 [1.08708407 1.12425987]
 [1.66466637 2.90245597]
 [0.3687399  1.72722036]
 [1.44762914 1.93470502]
 [0.45251441 1.76186535]
 [1.1928417  0.41538853]
 [0.56214131 1.61699813]
 [1.40001722 1.03786387]
 [0.82365871 0.74111201]
 [0.57327067 1.89774323]
 [1.07401966 1.09875982]
 [1.13541777 2.54983294]
 [0.90141581 0.67603733]
 [0.62125962 1.69138617]
 [0.08480472 1.45785119]
 [0.62568542 1.41057159]
 [1.02486702 2.43541316]
 [0.5406688  0.88755107]
 [0.92164588 0.55348054]
 [0.58585373 1.79816856]
 [0.76174051 1.42396798]
 [1.01739343 2.33590917]
 [1.00186426 2.40455155]
 [0.88731844 0.67440707]
 [1.02886412 1.60481703]
 [0.41832036 1.20780679]
 [2.02089227 2.31617114]
 [1.54841846 1.16607157]
 [1.16534958 2.54196764]
 [0.07117323 1.4483109 ]
 [1.34948334 0.24495155]
 [1.28859162 0.32454229]
 [0.26230718 1.65844613]
 [1.0170643  0.40231644]
 [1.5055717  0.44641002]
 [1.22775054 1.07650915]
 [1.14898633 0.39501044]
 [0.33139296 1.71379452]
 [0.39652158 1.77856628]
 [0.41566679 1.02465346]
 [0.6849059  0.74268983]
 [1.14136883 2.52398786]
 [0.55396316 1.91478285]
 [1.44081127 2.09395968]
 [0.84202495 0.67788549]
 [1.04297295 2.12140042]
 [1.41249734 1.1355517 ]
 [0.38276824 1.80069757]
 [0.60628809 0.97378981]
 [0.24537622 1.46071746]
 [1.23586329 2.53842638]
 [0.7478225  0.68300502]
 [0.39048949 1.78150392]
 [0.97534307 0.59022374]
 [0.71611645 0.89239132]
 [0.48259974 1.10974029]
 [0.8605286  1.14020502]
 [0.39220744 1.45327865]
 [1.09928293 0.40562486]
 [0.84670669 2.18719339]
 [0.20342967 1.59173096]
 [1.53690307 0.36320818]
 [1.26797657 2.68571082]
 [2.26182654 1.48460099]
 [1.26028043 0.18330165]
 [0.24943202 1.17661339]
 [1.71024926 1.8380146 ]
 [1.05586171 0.78490616]
 [0.48052667 0.94856969]
 [0.3243437  1.27417024]
 [0.87505249 0.66490378]
 [1.26072534 1.08239858]
 [0.64983534 0.78224848]
 [0.77487879 1.2014425 ]
 [0.69819995 1.88331489]
 [0.34347279 1.10287507]
 [1.89676656 1.56010778]
 [1.81129566 0.62993035]
 [1.37547604 2.2108346 ]
 [2.3638252  2.50649672]
 [0.14053791 1.33015905]
 [0.57976637 1.03962106]
 [1.18051878 1.24202837]
 [0.82468832 1.96017011]
 [0.29623481 1.65955069]
 [2.18567281 0.79193583]
 [0.01269324 1.41139254]
 [0.76374468 1.61437425]
 [0.93049873 1.29284973]
 [0.40977816 1.72569851]
 [0.71585653 0.83054903]
 [0.25389054 1.49854052]
 [0.52140716 0.92107335]
 [0.3105091  1.72802701]
 [1.38027081 0.14686202]
 [1.55448344 1.87130785]
 [1.29822236 0.19001571]
 [0.21092655 1.53118194]
 [0.7924064  0.79268826]
 [1.65374746 0.24599894]
 [1.26415227 0.24033058]
 [1.28529486 0.51647321]
 [2.05213439 0.65871389]
 [1.12453108 1.98374961]
 [1.77008729 0.45925873]
 [1.90319064 1.39012288]
 [1.91235595 1.07071574]
 [0.57273376 1.42828539]
 [2.1516078  0.73397934]
 [1.65272619 1.11741944]
 [0.73204025 0.7049337 ]
 [1.69250214 0.54793658]
 [1.94451845 0.64698619]
 [0.49048796 1.90058788]
 [0.76045756 1.3480439 ]
 [2.42101756 1.47704183]
 [1.66938655 0.25174907]
 [2.31094805 1.67547385]
 [1.08007039 0.35532838]
 [2.12895374 1.38938323]
 [2.06328443 1.99082731]
 [0.82911739 1.51307519]
 [1.73436473 1.25061562]
 [1.49940106 0.6897066 ]
 [0.94648696 1.40234038]
 [1.49741373 0.49720215]
 [1.24571511 1.14746836]
 [1.28610015 0.86156462]
 [0.45430192 1.08274171]
 [2.20009614 0.82209462]
 [2.28298013 1.49538908]
 [1.89990329 0.49650957]
 [1.62302012 0.55662459]
 [1.72604744 0.84754735]
 [1.21393398 0.42062537]
 [0.55993869 1.37430965]
 [1.91613837 1.00307591]
 [0.94699843 0.60130326]
 [1.17615449 2.28017315]
 [0.94454047 0.52750705]
 [2.25603454 0.83927847]
 [1.68699652 0.70605235]
 [2.17570414 0.87549075]
 [1.3052921  0.87342127]
 [1.67471976 1.9990589 ]
 [1.91926278 0.59502767]
 [0.78987836 0.98659226]
 [1.99095433 0.71599109]
 [2.04495684 0.68553818]
 [0.95507668 1.07107237]
 [1.12664983 1.4922998 ]
 [1.24797917 1.72015127]
 [1.53441452 0.41201555]
 [1.37145648 0.38419661]
 [1.50810507 0.3252489 ]
 [0.72002943 1.3773731 ]
 [0.9559406  0.96431567]
 [2.09923451 0.77906295]
 [1.68439368 0.29732319]
 [0.74691408 1.03001232]
 [1.73857556 2.57138685]
 [1.07898338 0.3904115 ]
 [0.83747802 2.00247773]
 [0.93979749 1.8780005 ]
 [1.82888377 0.61099366]
 [2.0507333  0.63726068]
 [1.57106588 0.59974133]
 [2.21588093 1.22153035]
 [1.64698703 0.52804163]
 [0.76768284 2.0456195 ]
 [1.31814494 0.22491745]
 [1.99876075 1.19812992]
 [0.30196308 1.55304679]
 [1.04898766 0.57688543]
 [2.12941382 1.66864313]
 [1.22974342 0.6526706 ]
 [2.0065894  1.08386745]
 [1.97015073 0.76503216]
 [2.06890124 0.83473738]
 [1.73550481 0.39709173]
 [0.3839522  1.16240786]
 [1.96949536 0.59300624]
 [0.48068263 0.95597718]
 [1.02238005 1.92262299]
 [0.70440444 1.02703052]
 [0.17387192 1.43391483]
 [2.48894707 1.09800226]
 [0.86817006 0.79434432]
 [1.80717769 0.62334203]
 [0.94432254 1.25392678]
 [1.9009633  1.28522055]
 [1.44225363 1.48803337]
 [1.9718665  0.66691262]
 [1.82972831 0.72808774]
 [1.84380746 0.65490196]
 [0.36895552 1.04940258]
 [1.91407329 1.47329653]
 [1.40838411 0.68936045]]

RÓTULO DADO PELO KMEANS DAS AMOSTRAS

[1 0 0 0 0 0 0 1 0 1 1 0 0 0 1 0 0 0 0 0 1 0 0 0 0 1 0 0 0 1 0 0 1 1 0 1 1
 1 1 0 0 0 0 0 0 0 1 0 1 0 0 0 0 1 0 1 0 0 0 0 1 0 0 1 0 1 1 0 0 1 0 0 1 1
 0 0 0 0 1 1 0 0 0 0 0 0 0 1 0 0 0 0 0 0 0 0 1 0 1 0 0 1 1 1 1 0 1 1 1 0 1
 1 1 1 1 0 0 1 1 1 1 1 1 0 1 1 0 1 1 1 0 1 1 1 1 1 1 0 1 1 0 1 1 1 1 1 0 1
 0 1 1 0 0 0 1 1 1 0 0 1 1 0 0 1 0 0 1 1 1 1 1 0 1 1 0 1 1 1 1 1 1 1 0 1 0
 0 0 0 1 1 1 0 1 0 1 1 1 0 1 1]
[1 0 0 0 0 0 0 1 0 1 1 0 0 0 1 0 0 0 0 0 1 0 0 0 0 1 0 0 0 1 0 0 1 1 0 1 1
 1 1 0 0 0 0 0 0 0 1 0 1 0 0 0 0 1 0 1 0 0 0 0 1 0 0 1 0 1 1 0 0 1 0 0 1 1
 0 0 0 0 1 1 0 0 0 0 0 0 0 1 0 0 0 0 0 0 0 0 1 0 1 0 0 1 1 1 1 0 1 1 1 0 1
 1 1 1 1 0 0 1 1 1 1 1 1 0 1 1 0 1 1 1 0 1 1 1 1 1 1 0 1 1 0 1 1 1 1 1 0 1
 0 1 1 0 0 0 1 1 1 0 0 1 1 0 0 1 0 0 1 1 1 1 1 0 1 1 0 1 1 1 1 1 1 1 0 1 0
 0 0 0 1 1 1 0 1 0 1 1 1 0 1 1]

#######Tipo de Nomalização StandardScaler#############

[[ 1.06254837 -0.07417188  0.5659695  ... -0.14285714 -0.07088812
  -0.12340351]
 [ 0.4365994   1.60519146 -1.25973855 ... -0.14285714 -0.07088812
  -0.12340351]
 [-0.81529853  0.4856159  -0.6511692  ... -0.14285714 -0.07088812
  -0.12340351]
 ...
 [-0.50232404  0.4856159   2.08739287 ... -0.14285714 -0.07088812
  -0.12340351]
 [ 0.4365994  -1.47364133 -1.25973855 ... -0.14285714 -0.07088812
  -0.12340351]
 [ 2.3144463  -0.35406577 -1.56402323 ... -0.14285714 -0.07088812
  -0.12340351]]
Elbow Method: Número de Cluster - 2 Valor - 28684.68870337873

Elbow Method: Número de Cluster - 3 Valor - 26728.252282540197

Elbow Method: Número de Cluster - 4 Valor - 25017.98277952475

Elbow Method: Número de Cluster - 5 Valor - 23877.525722830957

Elbow Method: Número de Cluster - 6 Valor - 22330.422768188182

Elbow Method: Número de Cluster - 7 Valor - 21702.61653358197

Elbow Method: Número de Cluster - 8 Valor - 20672.843311756675

Elbow Method: Número de Cluster - 9 Valor - 20035.031290219886

Elbow Method: Número de Cluster - 10 Valor - 19655.43397939805

VARIÂNCIA DAS MELHORES FEATURES
[0.12110958 0.10239124]

COORDENADA DOS CENTROIDES

[[ 5.70397216 -0.5854933 ]
 [-2.10968833  0.21655232]]

TABELA DE DISTÂNCIAS

[[ 0.63460896  8.03216357]
 [ 5.69908212  2.15610916]
 [ 4.52861018  5.70861914]
 [18.37037932 12.60721228]
 [ 8.2405679   3.87616181]
 [ 8.1134349   7.61258043]
 [10.25848284  6.14337871]
 [ 1.34752867  9.05623384]
 [ 6.80431008  4.1787964 ]
 [ 4.61252     7.64605066]
 [ 2.30250367  6.52332148]
 [ 4.20822818  3.68779934]
 [ 4.81138887  6.27086098]
 [ 8.3640842   0.71970172]
 [ 1.04580982  7.76450279]
 [ 5.78381344  4.2921783 ]
 [ 3.42616218  4.43251327]
 [ 4.46679605  5.09710332]
 [15.55816492 10.18573971]
 [10.48134881  3.71742172]
 [ 1.80451182  6.05616897]
 [ 7.53909989  2.29794707]
 [ 5.05042809  5.40096897]
 [ 8.66794903  3.39001506]
 [ 7.12181102  0.99640956]
 [ 1.10316196  7.06243305]
 [ 7.27164837  6.12802436]
 [ 2.70952734  5.62201585]
 [ 6.97927022  8.02887096]
 [ 8.46382924  9.59797624]
 [15.15837655  9.7443116 ]
 [ 3.409505    4.56592272]
 [ 1.73627966  9.37547769]
 [ 0.4513514   7.62059067]
 [ 4.11066948  3.74972165]
 [ 0.59526569  7.89341911]
 [ 2.22420615 10.05089783]
 [ 2.25567568  7.8756039 ]
 [ 0.90638691  8.12182064]
 [ 4.04392921  3.86995093]
 [ 6.6121343   1.48494375]
 [ 1.52064304  6.33675401]
 [ 5.14115904  2.74055728]
 [ 9.8112883   2.5933155 ]
 [ 5.06554533  3.26631805]
 [16.3704433  11.2458306 ]
 [ 1.23701346  7.12418977]
 [19.71144505 15.68177764]
 [ 2.24660993  8.77007907]
 [ 7.11761852  2.40077839]
 [ 3.31344622  5.85011404]
 [ 5.78025973  2.70742435]
 [11.20031632  5.0720214 ]
 [ 1.82379827  6.29685257]
 [ 4.58524543  3.3633604 ]
 [ 0.95216013  7.42397684]
 [ 1.52107108  6.33369577]
 [ 2.6656757   5.42194756]
 [ 2.10327386  6.37994806]
 [17.85039201 14.73061249]
 [ 0.69967588  8.09523364]
 [11.46522519  4.52284458]
 [ 7.12144092  2.04640477]
 [ 2.27085012 10.09122643]
 [10.44430777  2.67229893]
 [ 5.06326685 12.16049932]
 [ 0.71169659  8.51479099]
 [ 2.68589443  5.19429621]
 [ 4.80384782  8.12828089]
 [ 0.48044168  7.73432671]
 [ 1.58249194  6.31488939]
 [ 3.10972482  5.13630493]
 [ 1.05990639  7.09887186]
 [ 4.13458556  6.69126514]
 [ 1.79146414  6.06479952]
 [ 4.68863687  5.15304177]
 [33.00853204 28.94030739]
 [ 2.59878997  5.39317115]
 [ 3.89688035  9.92518618]
 [ 2.8081495  10.5749492 ]
 [ 6.10762329  4.80605505]
 [ 6.7056506  10.58901813]
 [ 2.85367641  5.02442243]
 [ 6.7422943   5.30002971]
 [ 3.97703587  6.22617859]
 [11.23972359  5.19804728]
 [ 4.28145447  3.83544831]
 [ 2.92007008 10.66956207]
 [ 3.76942209  4.17811603]
 [ 2.60332595  5.52089996]
 [ 5.57673194  6.00960766]
 [ 5.42148935  3.08265737]
 [ 4.42178925  3.63254928]
 [ 3.56773344  4.44619421]
 [ 2.16016163  5.72298759]
 [ 4.4429395   3.45368713]
 [ 1.15152628  8.98644122]
 [14.84704796 11.0631563 ]
 [ 1.4299639   9.26855853]
 [ 4.26094041  3.60964676]
 [ 2.98664785  5.37109219]
 [ 2.03924012  9.85860992]
 [ 0.95110791  8.71897693]
 [ 1.28680596  8.42486244]
 [ 2.969596   10.76462345]
 [13.20878575  8.6856161 ]
 [ 2.05979497  9.82279071]
 [ 3.69736329 10.43141935]
 [ 3.98467851  8.69989478]
 [ 1.84615101  6.07736447]
 [ 3.89861083 11.75119221]
 [ 5.71623117  7.44494479]
 [ 0.85438029  7.25690811]
 [ 2.15943869  9.72273161]
 [ 2.81692112 10.55992776]
 [ 9.04468203  3.10222099]
 [ 3.225366    5.88125545]
 [ 5.30183503 12.50855627]
 [ 2.61532319  8.98922474]
 [ 4.78605338 11.72277387]
 [ 0.55198851  8.38304948]
 [ 5.30055678 11.185235  ]
 [ 6.19824479  9.37434475]
 [ 6.47184041  4.734886  ]
 [ 4.05494085  8.05021727]
 [ 1.81871072  8.84375771]
 [ 2.29444491  6.86810841]
 [ 1.9430275   9.32586404]
 [ 2.37253083  8.63178911]
 [ 2.07881941  8.42675984]
 [ 2.73762911  5.34643996]
 [ 3.46970552 11.27334431]
 [ 5.4464271  12.17453371]
 [ 2.96474379 10.77992698]
 [ 2.75843297 10.26596194]
 [ 2.80861013  9.19010713]
 [ 1.16288792  8.42037187]
 [ 6.09385202  2.72886113]
 [ 7.11570531 10.82940985]
 [ 0.94594815  6.90911764]
 [10.03692998  5.29068522]
 [ 0.87082948  7.23330521]
 [ 3.90883235 11.75084781]
 [ 2.36692545  9.56966883]
 [ 4.40898567 12.03648758]
 [ 1.75781133  8.84759972]
 [ 4.06566633  6.95878063]
 [ 2.58612973 10.11288943]
 [ 3.78243538  5.16900188]
 [ 2.91451315 10.58287515]
 [ 3.44450063 11.15394527]
 [ 2.00714008  7.0891311 ]
 [ 3.65797463  6.94581124]
 [ 8.40297314  6.01886114]
 [ 1.77547759  9.29438349]
 [ 1.09764605  8.48811079]
 [ 1.48168627  9.0903158 ]
 [ 1.84860173  6.46829648]
 [ 1.10502045  7.93934951]
 [ 2.73723247 10.46873326]
 [ 2.31825915 10.14870863]
 [ 1.72387807  6.77179902]
 [24.17982088 19.12943668]
 [ 0.55294681  8.33349909]
 [ 7.87799249  1.14741376]
 [ 8.03877241  3.86187049]
 [ 1.90321064  9.47825341]
 [ 2.8811658  10.66266729]
 [ 2.48548169  9.000552  ]
 [ 3.59167135  9.56327459]
 [ 1.69960953  9.00312252]
 [ 7.74240982  3.82920907]
 [ 1.29767691  9.14910466]
 [ 3.88572439  9.32665248]
 [ 7.52375587  2.22803777]
 [ 0.17079089  7.99070545]
 [ 5.21532586 10.18460297]
 [ 2.94103942  7.86018017]
 [ 3.62077596 10.94633232]
 [ 2.64864615 10.19451961]
 [ 2.42507572 10.02682708]
 [ 2.60466954 10.34691052]
 [ 2.06215529  6.26414091]
 [ 3.52603538 11.29595805]
 [ 1.57526339  6.48649571]
 [ 9.41424563  5.53800112]
 [ 2.98586029  5.9836428 ]
 [ 3.77554272  4.57976965]
 [ 4.34343261 12.15474382]
 [ 1.68405931  6.18137107]
 [ 2.80897095  9.95628765]
 [ 5.22239671  5.49235573]
 [ 3.86966756  8.80585893]
 [ 2.86268166  8.43745552]
 [ 2.94199457 10.66332137]
 [ 2.31725862  9.76817528]
 [ 3.36230177 11.0455017 ]
 [ 1.712388    6.24509195]
 [ 6.53983119  7.68865209]
 [ 1.38655847  8.11534558]]

RÓTULO DADO PELO KMEANS DAS AMOSTRAS

[0 1 0 1 1 1 1 0 1 0 0 1 0 1 0 1 0 0 1 1 0 1 0 1 1 0 1 0 0 0 1 0 0 0 1 0 0
 0 0 1 1 0 1 1 1 1 0 1 0 1 0 1 1 0 1 0 0 0 0 1 0 1 1 0 1 0 0 0 0 0 0 0 0 0
 0 0 1 0 0 0 1 0 0 1 0 1 1 0 0 0 0 1 1 0 0 1 0 1 0 1 0 0 0 0 0 1 0 0 0 0 0
 0 0 0 0 1 0 0 0 0 0 0 0 1 0 0 0 0 0 0 0 0 0 0 0 0 0 1 0 0 1 0 0 0 0 0 0 0
 0 0 0 0 0 1 0 0 0 0 0 0 0 0 1 0 1 1 0 0 0 0 0 1 0 0 1 0 0 0 0 0 0 0 0 0 0
 1 0 0 0 0 0 0 0 0 0 0 0 0 0 0]
[0 1 0 1 1 1 1 0 1 0 0 1 0 1 0 1 0 0 1 1 0 1 0 1 1 0 1 0 0 0 1 0 0 0 1 0 0
 0 0 1 1 0 1 1 1 1 0 1 0 1 0 1 1 0 1 0 0 0 0 1 0 1 1 0 1 0 0 0 0 0 0 0 0 0
 0 0 1 0 0 0 1 0 0 1 0 1 1 0 0 0 0 1 1 0 0 1 0 1 0 1 0 0 0 0 0 1 0 0 0 0 0
 0 0 0 0 1 0 0 0 0 0 0 0 1 0 0 0 0 0 0 0 0 0 0 0 0 0 1 0 0 1 0 0 0 0 0 0 0
 0 0 0 0 0 1 0 0 0 0 0 0 0 0 1 0 1 1 0 0 0 0 0 1 0 0 1 0 0 0 0 0 0 0 0 0 0
 1 0 0 0 0 0 0 0 0 0 0 0 0 0 0]

#######Tipo de Nomalização MaxAbsScaler#############

[[0.53846154 0.35714286 0.53846154 ... 0.         0.         0.        ]
 [0.38461538 0.78571429 0.07692308 ... 0.         0.         0.        ]
 [0.07692308 0.5        0.23076923 ... 0.         0.         0.        ]
 ...
 [0.15384615 0.5        0.92307692 ... 0.         0.         0.        ]
 [0.38461538 0.         0.07692308 ... 0.         0.         0.        ]
 [0.84615385 0.28571429 0.         ... 0.         0.         0.        ]]
Elbow Method: Número de Cluster - 2 Valor - 869.6523091853476

Elbow Method: Número de Cluster - 3 Valor - 804.9156697375731

Elbow Method: Número de Cluster - 4 Valor - 755.759698122297

Elbow Method: Número de Cluster - 5 Valor - 721.0134556793797

Elbow Method: Número de Cluster - 6 Valor - 688.631201923411

Elbow Method: Número de Cluster - 7 Valor - 669.5795442240393

Elbow Method: Número de Cluster - 8 Valor - 653.1495064337997

Elbow Method: Número de Cluster - 9 Valor - 629.9599655329538

Elbow Method: Número de Cluster - 10 Valor - 617.6539483746568

VARIÂNCIA DAS MELHORES FEATURES
[0.14841381 0.10945042]

COORDENADA DOS CENTROIDES

[[ 0.74350028  0.0587518 ]
 [-0.67269073 -0.05315639]]

TABELA DE DISTÂNCIAS

[[1.04091796 0.8099548 ]
 [0.50017433 1.75381768]
 [1.13307331 1.08058611]
 [1.64713205 2.85561498]
 [0.31975214 1.68875238]
 [1.428316   1.92353319]
 [0.40547668 1.72504689]
 [1.22876264 0.40752391]
 [0.57982179 1.57030099]
 [1.44808806 1.00225912]
 [0.87300649 0.69401601]
 [0.52457976 1.86106424]
 [1.12039589 1.0549445 ]
 [1.0953592  2.50707527]
 [0.95064256 0.62899697]
 [0.63481962 1.64460978]
 [0.05239156 1.41742725]
 [0.6143317  1.38271678]
 [0.97835119 2.3952911 ]
 [0.5807175  0.84828472]
 [0.96921662 0.50672902]
 [0.54311679 1.76428265]
 [0.7969996  1.37696464]
 [0.99534409 2.29014347]
 [0.95425901 2.36513589]
 [0.9364579  0.62731505]
 [1.0605462  1.55873332]
 [0.46426334 1.16169408]
 [2.00317483 2.31446715]
 [1.56200561 1.17540471]
 [1.11633154 2.5043846 ]
 [0.04382554 1.40771417]
 [1.39637508 0.2119512 ]
 [1.32607031 0.32605903]
 [0.2128504  1.61841025]
 [1.06124559 0.35975641]
 [1.54030334 0.47169112]
 [1.24044312 1.07295153]
 [1.18631045 0.38010077]
 [0.28185054 1.67445644]
 [0.37170403 1.734807  ]
 [0.45220678 0.98584163]
 [0.72570079 0.70398315]
 [1.10896463 2.47945256]
 [0.50444702 1.87686466]
 [1.46226047 2.04870311]
 [0.89084356 0.63089466]
 [1.00168445 2.09344233]
 [1.42510167 1.13939674]
 [0.33893756 1.75926137]
 [0.65567954 0.92707798]
 [0.22148465 1.42340622]
 [1.21415989 2.49230264]
 [0.78836078 0.6451628 ]
 [0.34112677 1.74200172]
 [1.0241976  0.54333878]
 [0.74166403 0.86443457]
 [0.53093602 1.0634461 ]
 [0.86844485 1.12093364]
 [0.37300536 1.41922492]
 [1.14665531 0.35875182]
 [0.79719715 2.15077684]
 [0.15409815 1.55175232]
 [1.57391162 0.39494054]
 [1.22384795 2.64443042]
 [2.28019985 1.51515956]
 [1.30537137 0.1362097 ]
 [0.28820333 1.1361285 ]
 [1.70217458 1.83796224]
 [1.08001952 0.77374251]
 [0.52004877 0.90915736]
 [0.36859621 1.22873439]
 [0.92400871 0.61780695]
 [1.30786821 1.04244324]
 [0.69654512 0.73821414]
 [0.81858872 1.15458091]
 [0.65535986 1.8507565 ]
 [0.37764308 1.06398258]
 [1.90364146 1.57403375]
 [1.84568918 0.66977324]
 [1.34182076 2.1909182 ]
 [2.34930996 2.51107537]
 [0.1878723  1.28688223]
 [0.62852471 0.99284349]
 [1.22477124 1.1994164 ]
 [0.78291909 1.92953585]
 [0.28123954 1.6156618 ]
 [2.2315114  0.82576899]
 [0.06106737 1.36958481]
 [0.74080993 1.58827366]
 [0.97202846 1.2468844 ]
 [0.40029732 1.68082983]
 [0.76531784 0.78369389]
 [0.27122495 1.45379953]
 [0.55870503 0.88304387]
 [0.27056676 1.68604148]
 [1.42597206 0.11810948]
 [1.58746983 1.82942165]
 [1.33903756 0.18369642]
 [0.21676765 1.48714849]
 [0.84191438 0.74559109]
 [1.69832246 0.2809468 ]
 [1.30415072 0.23155051]
 [1.33442112 0.47983748]
 [2.09786473 0.69197475]
 [1.140012   1.9369347 ]
 [1.81721245 0.4751186 ]
 [1.916071   1.40899612]
 [1.96175035 1.05714129]
 [0.55915318 1.39887907]
 [2.19552421 0.77494119]
 [1.70106589 1.08970815]
 [0.77882262 0.66029548]
 [1.74111433 0.54454716]
 [1.99221381 0.66455912]
 [0.44327267 1.86017207]
 [0.75520528 1.32454219]
 [2.44393657 1.51387637]
 [1.71263403 0.29572562]
 [2.32423057 1.70207239]
 [1.12150274 0.32242438]
 [2.14711368 1.41760368]
 [2.05892116 1.99930871]
 [0.86113909 1.46617486]
 [1.78194199 1.22309948]
 [1.54892741 0.66420636]
 [0.94050995 1.38432723]
 [1.54629906 0.47683639]
 [1.25572903 1.14378255]
 [1.30728771 0.8634018 ]
 [0.50353414 1.03694297]
 [2.24652111 0.85312661]
 [2.30154753 1.52643437]
 [1.94502362 0.53152651]
 [1.65621879 0.58731294]
 [1.77559603 0.83146641]
 [1.26229429 0.37876122]
 [0.550924   1.34482681]
 [1.94170886 1.03440908]
 [0.9957747  0.55425389]
 [1.17391045 2.23309099]
 [0.99192471 0.48073605]
 [2.30017939 0.87964892]
 [1.73639297 0.69313382]
 [2.21202825 0.9218259 ]
 [1.32617909 0.8761768 ]
 [1.65925458 1.99388586]
 [1.96650728 0.61563087]
 [0.83819918 0.93968114]
 [2.03901762 0.73170632]
 [2.08406918 0.73262404]
 [0.96663043 1.05568018]
 [1.11938628 1.47911494]
 [1.27964893 1.67546824]
 [1.58263021 0.39925057]
 [1.41973785 0.3542693 ]
 [1.55563819 0.31421272]
 [0.71233839 1.35245079]
 [0.97275792 0.94890581]
 [2.14682774 0.80126049]
 [1.7297716  0.32570618]
 [0.76244019 1.00586299]
 [1.74809516 2.5254059 ]
 [1.12567658 0.34333912]
 [0.83535247 1.95572421]
 [0.95400441 1.83091765]
 [1.8772368  0.61786816]
 [2.095269   0.67596829]
 [1.62030333 0.58205841]
 [2.26541736 1.2195849 ]
 [1.69564923 0.52106915]
 [0.75408206 1.99965669]
 [1.35785093 0.22722762]
 [2.04791422 1.18431102]
 [0.26586317 1.51613586]
 [1.08158863 0.56089004]
 [2.13822068 1.68853479]
 [1.25790991 0.65225784]
 [2.03163924 1.11668215]
 [2.01886001 0.77370258]
 [2.11750012 0.84750623]
 [1.78208812 0.41630767]
 [0.43234299 1.11689248]
 [2.00957228 0.64009025]
 [0.52849421 0.91214089]
 [1.03729087 1.87562721]
 [0.75249506 0.97993049]
 [0.15465487 1.39529285]
 [2.53511384 1.13209414]
 [0.91771231 0.74748181]
 [1.85576997 0.62667212]
 [0.98700884 1.20815346]
 [1.94915822 1.26364449]
 [1.4417059  1.4861998 ]
 [2.01950403 0.6857809 ]
 [1.87887097 0.72596024]
 [1.87816989 0.69549974]
 [0.41327704 1.0077258 ]
 [1.96045325 1.4471068 ]
 [1.45792972 0.65856113]]

RÓTULO DADO PELO KMEANS DAS AMOSTRAS

[1 0 1 0 0 0 0 1 0 1 1 0 1 0 1 0 0 0 0 0 1 0 0 0 0 1 0 0 0 1 0 0 1 1 0 1 1
 1 1 0 0 0 1 0 0 0 1 0 1 0 0 0 0 1 0 1 0 0 0 0 1 0 0 1 0 1 1 0 0 1 0 0 1 1
 0 0 0 0 1 1 0 0 0 0 1 0 0 1 0 0 0 0 0 0 0 0 1 0 1 0 1 1 1 1 1 0 1 1 1 0 1
 1 1 1 1 0 0 1 1 1 1 1 1 0 1 1 0 1 1 1 0 1 1 1 1 1 1 0 1 1 0 1 1 1 1 1 0 1
 0 1 1 0 0 0 1 1 1 0 1 1 1 0 0 1 0 0 1 1 1 1 1 0 1 1 0 1 1 1 1 1 1 1 0 1 0
 0 0 0 1 1 1 0 1 0 1 1 1 0 1 1]
[1 0 1 0 0 0 0 1 0 1 1 0 1 0 1 0 0 0 0 0 1 0 0 0 0 1 0 0 0 1 0 0 1 1 0 1 1
 1 1 0 0 0 1 0 0 0 1 0 1 0 0 0 0 1 0 1 0 0 0 0 1 0 0 1 0 1 1 0 0 1 0 0 1 1
 0 0 0 0 1 1 0 0 0 0 1 0 0 1 0 0 0 0 0 0 0 0 1 0 1 0 1 1 1 1 1 0 1 1 1 0 1
 1 1 1 1 0 0 1 1 1 1 1 1 0 1 1 0 1 1 1 0 1 1 1 1 1 1 0 1 1 0 1 1 1 1 1 0 1
 0 1 1 0 0 0 1 1 1 0 1 1 1 0 0 1 0 0 1 1 1 1 1 0 1 1 0 1 1 1 1 1 1 1 0 1 0
 0 0 0 1 1 1 0 1 0 1 1 1 0 1 1]

#######Tipo de Nomalização RobustScaler#############

[[ 0.94117647  0.          0.5        ...  0.          0.
   0.        ]
 [ 0.47058824  1.         -1.         ...  0.          0.
   0.        ]
 [-0.47058824  0.33333333 -0.5        ...  0.          0.
   0.        ]
 ...
 [-0.23529412  0.33333333  1.75       ...  0.          0.
   0.        ]
 [ 0.47058824 -0.83333333 -1.         ...  0.          0.
   0.        ]
 [ 1.88235294 -0.16666667 -1.25       ...  0.          0.
   0.        ]]
Elbow Method: Número de Cluster - 2 Valor - 11072.558102626897

Elbow Method: Número de Cluster - 3 Valor - 10025.468546374339

Elbow Method: Número de Cluster - 4 Valor - 9088.03863237546

Elbow Method: Número de Cluster - 5 Valor - 8541.363734222849

Elbow Method: Número de Cluster - 6 Valor - 8109.695906224472

Elbow Method: Número de Cluster - 7 Valor - 7761.173375132272

Elbow Method: Número de Cluster - 8 Valor - 7527.015347856027

Elbow Method: Número de Cluster - 9 Valor - 7250.642786377564

Elbow Method: Número de Cluster - 10 Valor - 7160.560698188651

VARIÂNCIA DAS MELHORES FEATURES
[0.18198219 0.13494907]

COORDENADA DOS CENTROIDES

[[ 3.27419753  1.09234942]
 [-2.09333941 -0.69838733]]

TABELA DE DISTÂNCIAS

[[ 5.25042658  0.64538888]
 [ 0.72428978  5.0193231 ]
 [ 2.82797446  5.03091253]
 [ 4.68920736 10.33893022]
 [ 5.25020866  8.57225314]
 [ 6.91909963  6.24879131]
 [ 6.72494845  8.53847152]
 [ 6.77852576  1.18287529]
 [ 2.85512226  7.91254019]
 [ 4.84682556  4.22143931]
 [ 3.83362887  4.81385461]
 [ 4.21206487  3.50308828]
 [ 4.86111338  7.26327309]
 [ 4.27045498  8.96373028]
 [ 5.43269566  1.71587171]
 [ 1.89180412  5.15927297]
 [ 2.97449267  2.86657302]
 [ 4.50830309  3.29702289]
 [ 4.77069685  8.43259352]
 [ 3.53176444  3.12051453]
 [ 2.70993856  2.96053429]
 [ 3.26043894  4.221559  ]
 [ 2.87527137  5.21751891]
 [ 1.74938882  7.40433127]
 [ 3.42113507  7.12240118]
 [ 4.54120383  1.79622321]
 [ 4.87463082  8.4634097 ]
 [ 2.72503805  3.68224285]
 [ 8.20045197  7.47773554]
 [ 7.52326679  4.19990975]
 [ 5.17946977  8.3582841 ]
 [ 1.75985391  3.99102636]
 [ 6.33761651  2.31993217]
 [ 5.4007297   0.7544657 ]
 [ 1.75607676  5.05632458]
 [ 5.15194306  0.52847774]
 [ 6.66144225  1.42939145]
 [ 5.82602449  2.59788225]
 [ 5.51391733  0.22317457]
 [ 1.11080673  4.96427236]
 [ 0.68168322  6.2402987 ]
 [ 3.72582874  1.94732654]
 [ 3.10447802  4.89663037]
 [ 4.65901042 10.20185553]
 [ 3.28547832  5.44141668]
 [ 4.48795417  8.88499851]
 [ 4.25141006  2.11303705]
 [ 7.48063513  8.79588662]
 [ 6.00924294  3.48124604]
 [ 1.89967729  6.45647687]
 [ 3.57109231  3.280297  ]
 [ 2.0567574   5.67907098]
 [ 5.92058548 11.55533132]
 [ 2.23737448  3.89134462]
 [ 1.93870129  4.74613005]
 [ 4.50959844  1.7163302 ]
 [ 1.97365697  3.68471978]
 [ 1.4522804   4.33063652]
 [ 4.18302827  2.76229016]
 [ 3.63632845  3.2081774 ]
 [ 5.42295749  0.78408289]
 [ 4.36776084  8.17313803]
 [ 2.88122858  6.6173832 ]
 [ 6.97744285  1.47314709]
 [ 5.19039761 10.52011144]
 [10.56777995  5.67885842]
 [ 5.58544092  1.04033707]
 [ 1.66307909  4.21888598]
 [ 6.82471276  4.89420658]
 [ 4.54151204  1.36170477]
 [ 3.77095029  1.91898078]
 [ 2.55112251  3.87355184]
 [ 4.69176263  1.23870081]
 [ 4.38187287  5.541246  ]
 [ 3.36330559  2.33065813]
 [ 2.52103005  6.86021455]
 [ 4.34209309  6.52716101]
 [ 2.83474167  3.38569926]
 [ 7.26759653  3.6644927 ]
 [ 7.513888    1.86763264]
 [ 7.39241028  8.42337255]
 [11.53094522  9.04779357]
 [ 2.7461644   2.9129256 ]
 [ 3.53706441  2.43675521]
 [ 3.31808471  4.25528415]
 [ 4.56593636  8.34155208]
 [ 0.79857022  5.28785898]
 [ 6.98014015  2.54685608]
 [ 0.65029545  5.47153211]
 [ 3.54850175  3.12897407]
 [ 4.48604846  7.71568237]
 [ 0.66908661  5.52012386]
 [ 2.41394211  4.73506231]
 [ 2.77138831  2.96412974]
 [ 4.25741003  4.49785636]
 [ 1.69381065  4.71767106]
 [ 5.74394951  0.74773874]
 [ 7.14616793 10.93673777]
 [ 6.61071501  1.01669324]
 [ 1.90386264  3.75584449]
 [ 4.05606629  2.17968584]
 [ 6.43291411  1.94081934]
 [ 5.78797935  0.3107713 ]
 [ 5.43130664  2.55487858]
 [ 7.42889735  2.5400329 ]
 [ 5.25470145  9.82159122]
 [ 6.35502327  1.9861007 ]
 [ 8.75616139  4.15656525]
 [ 6.08897898  5.82055445]
 [ 4.20183203  1.75955515]
 [ 8.50931127  3.06103355]
 [ 5.36027036  6.69446362]
 [ 4.17703079  2.1211743 ]
 [ 6.89512613  2.97677686]
 [ 7.42394577  2.41995385]
 [ 3.09492605  8.49840126]
 [ 5.26642349  3.46922981]
 [ 9.63640587  4.569383  ]
 [ 7.02409274  1.54542488]
 [ 9.43536091  4.426143  ]
 [ 5.02278487  0.98880876]
 [ 9.35525049  4.4851489 ]
 [ 7.9788063   5.36574083]
 [ 2.71160364  5.26155003]
 [ 4.95228511  5.75508416]
 [ 6.4516437   2.63639996]
 [ 5.26472266  3.06322293]
 [ 6.43088165  2.45891596]
 [ 8.46387557  4.73884622]
 [ 5.80932185  1.0736664 ]
 [ 2.36959697  3.30470393]
 [ 7.97704871  2.8420891 ]
 [11.97034328  7.56143372]
 [ 6.68001207  1.59352331]
 [ 8.09442432  3.86654646]
 [ 6.38019041  4.54248629]
 [ 5.32067615  2.31450019]
 [ 4.20251541  5.88571795]
 [ 9.3322931   4.42081317]
 [ 5.0725538   0.87689717]
 [ 5.83838278 11.29770279]
 [ 4.58278015  2.25538987]
 [ 8.03819665  3.13887539]
 [ 6.91204021  3.79827915]
 [10.77073168  5.54766434]
 [ 6.3704202   1.77075021]
 [ 8.69045744  7.36273699]
 [ 6.62510836  3.97534274]
 [ 0.88693639  4.84521517]
 [ 7.37879982  3.19932433]
 [ 9.26612777  3.86630833]
 [ 5.8114341   2.15050752]
 [ 6.58411674  4.65914087]
 [ 3.43763241  6.97570226]
 [ 6.20186872  2.71483214]
 [ 4.43733217  1.91936394]
 [ 6.30547489  1.37232436]
 [ 5.0358876   2.07480182]
 [ 5.29683562  0.45350056]
 [ 6.84877167  2.48325027]
 [ 7.25681765  2.13538389]
 [ 4.5222391   1.49473587]
 [ 6.31567582 11.28497459]
 [ 5.44013964  1.39367542]
 [ 3.1652728   8.19887388]
 [ 2.97391991  8.14802629]
 [ 6.29722238  2.62453436]
 [ 7.34323917  1.9829291 ]
 [ 5.53986626  4.11451706]
 [ 6.54394072  4.74026208]
 [ 5.37705445  2.92274605]
 [ 0.87926531  6.09919611]
 [ 6.23276668  0.97135309]
 [ 6.369643    5.35123475]
 [ 3.19332037  5.55227539]
 [ 5.83810051  0.40346303]
 [ 9.26527856  5.48558397]
 [ 6.26718752  1.85735691]
 [ 8.6576224   3.43202229]
 [ 7.05940196  2.92643705]
 [ 6.75778046  2.841639  ]
 [ 7.04939496  3.02979502]
 [ 3.96519582  2.44674701]
 [ 8.29998869  2.64521347]
 [ 3.65198173  2.77136796]
 [ 4.48245308  9.4856868 ]
 [ 3.52164614  5.7136602 ]
 [ 3.51550556  3.56539614]
 [ 8.32745348  3.65265757]
 [ 4.77449155  2.0424685 ]
 [ 6.53743024  4.47266634]
 [ 2.85883516  6.38259575]
 [ 6.73836413  6.56714989]
 [ 7.40057542  3.68538291]
 [ 7.42892414  2.6806336 ]
 [ 7.04465853  3.44240468]
 [ 8.43664724  2.80012183]
 [ 3.72107893  1.95681465]
 [ 5.9084883   7.51374365]
 [ 4.78065091  1.92269851]]

RÓTULO DADO PELO KMEANS DAS AMOSTRAS

[1 0 0 0 0 1 0 1 0 1 0 1 0 0 1 0 1 1 0 1 0 0 0 0 0 1 0 0 1 1 0 0 1 1 0 1 1
 1 1 0 0 1 0 0 0 0 1 0 1 0 1 0 0 0 0 1 0 0 1 1 1 0 0 1 0 1 1 0 1 1 1 0 1 0
 1 0 0 0 1 1 0 1 0 1 0 0 0 1 0 1 0 0 0 0 0 0 1 0 1 0 1 1 1 1 1 0 1 1 1 1 1
 0 1 1 1 0 1 1 1 1 1 1 1 0 0 1 1 1 1 1 0 1 1 1 1 1 1 0 1 1 0 1 1 1 1 1 1 1
 0 1 1 1 1 0 1 1 1 1 1 1 1 1 0 1 0 0 1 1 1 1 1 0 1 1 0 1 1 1 1 1 1 1 1 1 1
 0 0 0 1 1 1 0 1 1 1 1 1 1 0 1]
[1 0 0 0 0 1 0 1 0 1 0 1 0 0 1 0 1 1 0 1 0 0 0 0 0 1 0 0 1 1 0 0 1 1 0 1 1
 1 1 0 0 1 0 0 0 0 1 0 1 0 1 0 0 0 0 1 0 0 1 1 1 0 0 1 0 1 1 0 1 1 1 0 1 0
 1 0 0 0 1 1 0 1 0 1 0 0 0 1 0 1 0 0 0 0 0 0 1 0 1 0 1 1 1 1 1 0 1 1 1 1 1
 0 1 1 1 0 1 1 1 1 1 1 1 0 0 1 1 1 1 1 0 1 1 1 1 1 1 0 1 1 0 1 1 1 1 1 1 1
 0 1 1 1 1 0 1 1 1 1 1 1 1 1 0 1 0 0 1 1 1 1 1 0 1 1 0 1 1 1 1 1 1 1 1 1 1
 0 0 0 1 1 1 0 1 1 1 1 1 1 0 1]
