
 Média do Conjunto de Treinamento por Feature:
[ 2.28983499e-17  1.91860416e-16 -4.51028104e-17  1.22471477e-16
  1.16920362e-16  4.72538675e-16 -4.78783679e-17 -2.53269627e-16
 -1.86656246e-16  5.50948176e-16  1.12410081e-16  5.96744876e-17
  5.70724024e-17  2.72525058e-16  7.28583860e-17  3.38618023e-16
 -1.54043445e-16 -1.38777878e-18  4.91273688e-16 -3.36362882e-16
 -8.32667268e-18 -1.36349265e-16  3.36536354e-17 -1.28369537e-16
  3.40699691e-16  1.54043445e-16  2.38004061e-16  1.79023463e-16
 -1.49186219e-16  2.34187669e-16 -2.91433544e-17 -3.64985819e-16
 -2.81719092e-16 -3.11209392e-16  2.29850861e-16  3.38964967e-16
  9.36750677e-17 -4.03843625e-16  9.47852907e-16 -2.31759056e-16
 -1.58206781e-16 -1.15185639e-16  2.92192485e-17 -1.16226473e-16
  1.18655086e-16  4.85722573e-17 -3.70536934e-16 -2.36616282e-16
  2.37136699e-16 -5.38566587e-16 -1.30451205e-16  3.12250226e-17
 -2.15561076e-16  1.79023463e-16  1.45022883e-16  1.73472348e-16
 -9.80118764e-17  8.69096461e-17  1.63237479e-16  1.38777878e-17
  2.06085149e-16 -4.32986980e-16 -1.25593980e-16 -7.10369263e-17
  4.23272528e-17  2.96637714e-17 -1.11022302e-16  1.27675648e-16
  1.08246745e-16  9.57567359e-17  7.21644966e-17 -2.20656826e-16
 -1.45716772e-16 -1.25593980e-16 -5.64132074e-16 -9.29811783e-17
  4.71150896e-16 -3.81639165e-17  3.70536934e-16  1.21430643e-16
 -5.79657849e-16 -2.76167977e-16  4.85722573e-18  2.77555756e-16
 -4.59354776e-16 -3.02882719e-16  1.89518540e-17  5.30825384e-17
  1.97758476e-16  2.06085149e-16  9.57567359e-17 -8.46545056e-17
 -1.45716772e-17 -4.16333634e-18 -6.93889390e-17 -3.26821903e-16
  1.40859546e-16 -3.71577769e-16 -9.29811783e-17 -4.51721993e-16
 -2.32799890e-16 -1.93595140e-16  5.75928194e-17  1.30798150e-16
 -5.13478149e-17 -3.51108032e-16  1.81799020e-16 -2.65065747e-16
 -7.35522754e-17 -1.25593980e-16  2.81025203e-17 -2.99066327e-16
 -5.89805982e-17  2.51187959e-16 -4.96130914e-17  3.92394450e-16
  9.70577785e-17  1.24900090e-16 -1.74860126e-16  1.36002321e-16
  2.50320598e-16 -4.35415592e-16  3.31679129e-16 -1.54737334e-16
  6.93889390e-19 -2.95249936e-16  1.73472348e-16  3.74700271e-17
  1.27675648e-16 -5.68989300e-17  5.68989300e-17 -4.68375339e-18
 -3.06352166e-16 -4.37323788e-16  3.53883589e-17 -3.13724741e-16
  3.60822483e-17 -8.88178420e-17 -2.42861287e-16  1.45022883e-16
  1.38083989e-16  2.47024623e-16  2.63677968e-17 -1.89952221e-17
  1.16053001e-16 -8.18789481e-17  3.67761377e-17 -2.53616572e-16
  6.24500451e-18  1.72084569e-16  7.91901267e-17 -6.34908792e-17
 -5.13478149e-17  1.79370407e-16  9.64506253e-17  2.09554596e-16
  1.59594560e-16  6.10622664e-17 -7.75768338e-16 -8.83668139e-16
  2.87324418e-16 -1.50573998e-16  4.16680579e-16 -5.11743425e-16
 -3.94129174e-16  4.30905311e-16  4.38538095e-16  4.71844785e-17
  4.12864187e-16 -9.29811783e-17  1.11022302e-17 -9.95731275e-17
 -4.85722573e-17  2.57086019e-16 -1.55084279e-16 -1.15185639e-16
  3.22658567e-17  2.87964097e-16 -6.66133815e-17  4.77395901e-16
  2.67841305e-16 -1.49533164e-16 -3.46944695e-19  4.85028684e-16
 -6.17561557e-16 -2.60902411e-16  7.97972799e-17 -2.57432964e-16
  9.50628465e-17 -1.47104551e-16 -4.57966998e-17  2.77555756e-17
 -9.40220124e-17 -1.50227053e-16  6.27969898e-17  2.22044605e-17
 -2.36963227e-16 -3.50414142e-17  1.32185929e-16 -1.83186799e-16
 -1.88737914e-16 -6.59194921e-17 -6.86950496e-17  2.20656826e-16
 -1.25593980e-16  4.32986980e-16  2.58126853e-16  3.06699111e-16
 -1.36349265e-16 -1.36002321e-16  4.57966998e-16  3.60822483e-17
  3.53016227e-17 -1.08246745e-16  1.75467280e-16 -1.49186219e-16
 -2.81025203e-17 -1.81452076e-16  3.36536354e-16 -8.06646416e-17
 -2.14758766e-16 -6.73072709e-17 -2.65065747e-16  1.54737334e-16
 -5.53029844e-16  8.25728375e-16 -5.84948756e-16 -1.23165367e-16
 -1.26287869e-16 -2.30371278e-16 -3.35842465e-16  2.15192447e-16
 -1.25940924e-16 -1.48405593e-16  1.07899800e-16 -2.17187379e-16
 -6.24500451e-18  4.37150316e-17  2.01921813e-16 -1.38083989e-16
  1.63757896e-16 -1.77462212e-16  1.70002901e-17 -2.79637424e-16
 -1.42941214e-16 -4.13558077e-16  4.94049246e-16  2.90045765e-16
 -1.58206781e-16  3.71924713e-16 -1.27675648e-16 -2.78596590e-16
 -2.60208521e-16 -2.53963517e-16 -1.60418553e-16  3.08086889e-16
 -7.07767178e-17 -4.05925293e-17  2.77555756e-18  5.41233725e-17
  1.03042574e-16 -5.04804532e-17 -5.68989300e-17  4.02455846e-17]
Média do Conjunto de Treinamento por Feature:
[1. 1. 1. 1. 1. 1. 1. 1. 1. 1. 1. 1. 1. 1. 1. 1. 1. 1. 1. 1. 1. 1. 1. 1.
 1. 1. 1. 1. 1. 1. 1. 1. 1. 1. 1. 1. 1. 1. 1. 1. 1. 1. 1. 1. 1. 1. 1. 1.
 1. 1. 1. 1. 1. 1. 1. 1. 1. 1. 1. 1. 1. 1. 1. 1. 1. 1. 1. 1. 1. 1. 1. 1.
 1. 1. 1. 1. 1. 1. 1. 1. 1. 1. 1. 1. 1. 1. 1. 1. 1. 1. 1. 1. 1. 1. 1. 1.
 1. 1. 1. 1. 1. 1. 1. 1. 1. 1. 1. 1. 1. 1. 1. 1. 1. 1. 1. 1. 1. 1. 1. 1.
 1. 1. 1. 1. 1. 1. 1. 1. 1. 1. 1. 1. 1. 1. 1. 1. 1. 1. 1. 1. 1. 1. 1. 1.
 1. 1. 1. 1. 1. 1. 1. 1. 1. 1. 1. 1. 1. 1. 1. 1. 1. 1. 1. 1. 1. 1. 1. 1.
 1. 1. 1. 1. 1. 1. 1. 1. 1. 1. 1. 1. 1. 1. 1. 1. 1. 1. 1. 1. 1. 1. 1. 1.
 1. 1. 1. 1. 1. 1. 1. 1. 1. 1. 1. 1. 1. 1. 1. 1. 1. 1. 1. 1. 1. 1. 1. 1.
 1. 1. 1. 1. 1. 1. 1. 1. 1. 1. 1. 1. 1. 1. 1. 1. 1. 1. 1. 1. 1. 1. 1. 1.
 1. 1. 1. 1. 1. 1. 1. 1. 1. 1. 1. 1. 1. 1. 1. 1. 1. 1. 1. 1. 1. 1. 1. 1.]
Treino do Gaussian Naive Bayes Terminado. (Tempo de execucao: 0.002283334732055664)
Treino do Logistic Regression Terminado. (Tempo de execucao: 0.03317618370056152)
Treino do Decision Tree Terminado. (Tempo de execucao: 0.045343637466430664)
Treino do K-Nearest Neighbors Terminado. (Tempo de execucao: 0.0020995140075683594)
Treino do Linear Discriminant Analysis Terminado. (Tempo de execucao: 0.03188323974609375)
Treino do Support Vector Machine Terminado. (Tempo de execucao: 0.021959304809570312)
Treino do RandomForest Terminado. (Tempo de execucao: 0.04482293128967285)
TreinoDesvio Padrão do Conjunto de Treinamento por Feature: do Neural Net Terminado. (Tempo de execucao: 0.6025395393371582)
Acuracia obtida com o Gaussian Naive Bayes no Conjunto de Treinamento: 0.66
Acuracia obtida com o Gaussian Naive Bayes no Conjunto de Teste: 0.57
Matriz de Confusão:
[[ 6 16]
 [ 1 17]]
Precision: 0.68615
Recall: 0.60859
F1-score: 0.54023
(Tempo de execucao: 0.00608)

Acuracia obtida com o Logistic Regression no Conjunto de Treinamento: 0.86
Acuracia obtida com o Logistic Regression no Conjunto de Teste: 0.55
Matriz de Confusão:
[[10 12]
 [ 6 12]]
Precision: 0.56250
Recall: 0.56061
F1-score: 0.54887
(Tempo de execucao: 0.01057)

Acuracia obtida com o Decision Tree no Conjunto de Treinamento: 0.58
Acuracia obtida com o Decision Tree no Conjunto de Teste: 0.47
Matriz de Confusão:
[[13  9]
 [12  6]]
Precision: 0.46000
Recall: 0.46212F1-score: 0.45841
(Tempo de execucao: 0.00662)

Acuracia obtida com o K-Nearest Neighbors no Conjunto de Treinamento: 0.59
Acuracia obtida com o K-Nearest Neighbors no Conjunto de Teste: 0.53
Matriz de Confusão:
[[ 6 16]
 [ 3 15]]
Precision: 0.57527
Recall: 0.55303
F1-score: 0.49967
(Tempo de execucao: 0.06731)

Acuracia obtida com o Linear Discriminant Analysis no Conjunto de Treinamento: 0.79
Acuracia obtida com o Linear Discriminant Analysis no Conjunto de Teste: 0.55
Matriz de Confusão:
[[15  7]
 [11  7]]
Precision: 0.53846
Recall: 0.53535
F1-score: 0.53125
(Tempo de execucao: 0.00643)

Acuracia obtida com o Support Vector Machine no Conjunto de Treinamento: 0.68
Acuracia obtida com o Support Vector Machine no Conjunto de Teste: 0.55
Matriz de Confusão:
[[ 5 17]
 [ 1 17]]
Precision: 0.66667
Recall: 0.58586
F1-score: 0.50549
(Tempo de execucao: 0.03444)

Acuracia obtida com o RandomForest no Conjunto de Treinamento: 0.66
Acuracia obtida com o RandomForest no Conjunto de Teste: 0.55
Matriz de Confusão:
[[12 10]
 [ 8 10]]
Precision: 0.55000
Recall: 0.55051
F1-score: 0.54887
(Tempo de execucao: 0.01373)

Acuracia obtida com o Neural Net no Conjunto de Treinamento: 0.81
Acuracia obtida com o Neural Net no Conjunto de Teste: 0.57
Matriz de Confusão:
[[14  8]
 [ 9  9]]
Precision: 0.56905
Recall: 0.56818
F1-score: 0.56825
(Tempo de execucao: 0.00803)
