
 Média do Conjunto de Treinamento por Feature:
[7.28693250e+04 1.59200625e+03 2.03312500e+01 8.93750000e-01
 1.11391875e+03 1.21107500e+03 5.18500000e+02 2.10187500e+01
 4.49437500e+01 5.37968750e+02 7.87750000e+01 1.05000000e+01
 0.00000000e+00 6.25000000e-02 5.55625000e+01 3.12500000e-02
 1.53152062e+04 1.93206250e+02 4.43750000e-01 0.00000000e+00
 9.86432500e+03 1.61149500e+04 1.21293750e+03 1.24500000e+01
 1.94325000e+02 4.25818750e+02 1.35058750e+03 1.44736250e+03
 0.00000000e+00 9.71875000e+00 2.67675000e+02 1.64581250e+02
 3.91750000e+03 3.53031250e+02 1.63500000e+01 0.00000000e+00
 7.41022500e+03 1.08561625e+04 2.66737500e+02 8.56250000e-01
 7.10393750e+02 8.46725000e+03 2.03492875e+04 1.19573750e+03
 3.10625000e+01 3.90312500e+01 2.07937500e+02 1.14501875e+03
 4.95781250e+02 2.89093750e+02 3.45375000e+01 1.18750000e-01
 1.49130000e+03 5.75612500e+02 1.90450000e+02 6.93125000e+00
 2.06181875e+03 5.04350625e+03 6.31680000e+03 2.48487500e+02
 3.69100000e+02 1.40640000e+03 4.91621875e+03 2.40518125e+04
 1.13100812e+04 2.06411875e+03 2.58750000e+01 1.85000000e+00
 1.87588125e+03 1.81702500e+03 3.13337500e+02 3.26375000e+01
 3.01375000e+01 2.15168750e+02 9.41562500e+01 3.31500000e+01
 0.00000000e+00 1.43750000e+00 2.76187500e+01 5.00000000e-01
 1.02198813e+04 7.33131250e+02 8.06875000e+00 1.87500000e-02
 1.12306437e+04 1.50046063e+04 1.73789375e+03 3.12625000e+01
 3.83193750e+02 1.53471250e+03 1.75908750e+03 4.16575000e+02
 3.56250000e-01 2.42250000e+01 1.66831250e+02 7.47750000e+01
 2.04488750e+03 3.42581250e+02 2.65750000e+01 9.37500000e-02
 5.24112500e+03 9.03850000e+03 6.76587500e+02 9.29375000e+00
 1.19746250e+03 8.82810625e+03 1.07045375e+04 1.64009375e+03
 2.30937500e+01 1.48762500e+02 6.00568750e+02 1.24097500e+03
 3.29237500e+02 2.15743750e+02 5.84187500e+01 1.01875000e+00
 1.13655625e+03 7.74268750e+02 2.24218750e+02 2.11750000e+01
 1.31044375e+03 3.51245000e+03 4.78017500e+03 3.90087500e+02
 2.26075000e+02 7.29981250e+02 3.90509375e+03 4.99779375e+03]
Média do Conjunto de Treinamento por Feature:
[9.49381363e+04 4.99811715e+03 2.11587415e+02 8.47835249e+00
 3.30217948e+03 3.19702523e+03 3.49051599e+03 1.59156938e+02
 3.88776563e+02 3.96585860e+03 7.08458370e+02 7.58599038e+01
 0.00000000e+00 7.88095013e-01 7.00061548e+02 3.94047507e-01
 2.28749844e+04 9.52273622e+02 3.68230036e+00 0.00000000e+00
 1.62879833e+04 2.33392667e+04 3.53237662e+03 1.08017753e+02
 1.15091907e+03 1.86939703e+03 5.43694939e+03 1.13622825e+04
 0.00000000e+00 1.15996615e+02 2.76522404e+03 2.03339630e+03
 1.10827241e+04 1.89969487e+03 1.37225918e+02 0.00000000e+00
 1.21928388e+04 1.95756331e+04 9.75197688e+02 7.29198779e+00
 2.11062362e+03 1.54225419e+04 3.02276650e+04 3.09437741e+03
 3.54311334e+02 4.20817574e+02 1.06847064e+03 3.12983452e+03
 2.49099708e+03 1.68325545e+03 2.59367931e+02 1.49738053e+00
 5.11933760e+03 2.27510631e+03 1.24143090e+03 7.12597469e+01
 7.70485985e+03 1.17941474e+04 1.23304017e+04 1.68849246e+03
 1.79571294e+03 8.04638649e+03 9.49483354e+03 3.92765863e+04
 1.27647526e+04 4.33611318e+03 1.48227897e+02 1.64359362e+01
 4.12438010e+03 3.57540993e+03 1.12911790e+03 2.20912751e+02
 2.15114606e+02 1.29642263e+03 7.27873775e+02 2.83907230e+02
 0.00000000e+00 1.78898321e+01 3.32735779e+02 3.72994638e+00
 9.55988400e+03 1.65125255e+03 5.00285071e+01 2.36428504e-01
 1.20619963e+04 1.87214167e+04 3.48338322e+03 1.48478175e+02
 1.06378768e+03 4.97247156e+03 4.79115498e+03 2.55265729e+03
 3.15306770e+00 2.16874674e+02 1.33492818e+03 7.95566669e+02
 3.79542745e+03 1.49946304e+03 1.40741632e+02 1.10564955e+00
 5.90237414e+03 8.05207266e+03 1.33170306e+03 5.75045212e+01
 2.54110374e+03 1.01035907e+04 1.44948573e+04 3.27861319e+03
 1.52283937e+02 6.63563698e+02 1.61198722e+03 2.31302521e+03
 1.04307026e+03 1.07988108e+03 4.80070079e+02 1.28459487e+01
 2.70862552e+03 1.63296950e+03 9.62252856e+02 1.87815719e+02
 3.52273741e+03 4.79811671e+03 6.92982887e+03 1.03565039e+03
 1.08343042e+03 1.67064186e+03 6.41309687e+03 7.10242314e+03]
Treino do Gaussian Naive Bayes Terminado. (Tempo de execucao: 0.0013108253479003906)
Treino do Logistic Regression Terminado. (Tempo de execucao: 0.015105724334716797)
Treino do Decision Tree Terminado. (Tempo de execucao: 0.004506826400756836)
Treino do K-Nearest Neighbors Terminado. (Tempo de execucao: 0.0010886192321777344)
Treino do Linear Discriminant Analysis Terminado. (Tempo de execucao: 0.022762298583984375)
Treino do Support Vector Machine Terminado. (Tempo de execucao: 0.011286020278930664)
Treino do RandomForest Terminado. (Tempo de execucao: 0.03320431709289551)
TreinoDesvio Padrão do Conjunto de Treinamento por Feature: do Neural Net Terminado. (Tempo de execucao: 0.5328419208526611)
Acuracia obtida com o Gaussian Naive Bayes no Conjunto de Treinamento: 0.79
Acuracia obtida com o Gaussian Naive Bayes no Conjunto de Teste: 0.68
Matriz de Confusão:
[[11 11]
 [ 2 16]]
Precision: 0.71937
Recall: 0.69444
F1-score: 0.66984
(Tempo de execucao: 0.00814)

Acuracia obtida com o Logistic Regression no Conjunto de Treinamento: 1.00
Acuracia obtida com o Logistic Regression no Conjunto de Teste: 0.60
Matriz de Confusão:
[[13  9]
 [ 7 11]]
Precision: 0.60000
Recall: 0.60101
F1-score: 0.59900
(Tempo de execucao: 0.00694)

Acuracia obtida com o Decision Tree no Conjunto de Treinamento: 1.00
Acuracia obtida com o Decision Tree no Conjunto de Teste: 0.70
Matriz de Confusão:
[[15  7]
 [ 5 13]]
Precision: 0.70000
Recall: 0.70202F1-score: 0.69925
(Tempo de execucao: 0.00665)

Acuracia obtida com o K-Nearest Neighbors no Conjunto de Treinamento: 0.86
Acuracia obtida com o K-Nearest Neighbors no Conjunto de Teste: 0.78
Matriz de Confusão:
[[16  6]
 [ 3 15]]
Precision: 0.77820
Recall: 0.78030
F1-score: 0.77486
(Tempo de execucao: 0.04117)

Acuracia obtida com o Linear Discriminant Analysis no Conjunto de Treinamento: 0.98
Acuracia obtida com o Linear Discriminant Analysis no Conjunto de Teste: 0.55
Matriz de Confusão:
[[ 8 14]
 [ 4 14]]
Precision: 0.58333
Recall: 0.57071
F1-score: 0.53964
(Tempo de execucao: 0.00636)

Acuracia obtida com o Support Vector Machine no Conjunto de Treinamento: 1.00
Acuracia obtida com o Support Vector Machine no Conjunto de Teste: 0.45
Matriz de Confusão:
[[ 0 22]
 [ 0 18]]
Precision: 0.22500
Recall: 0.50000
F1-score: 0.31034
(Tempo de execucao: 0.02118)

Acuracia obtida com o RandomForest no Conjunto de Treinamento: 1.00
Acuracia obtida com o RandomForest no Conjunto de Teste: 0.85
Matriz de Confusão:
[[18  4]
 [ 2 16]]
Precision: 0.85000
Recall: 0.85354
F1-score: 0.84962
(Tempo de execucao: 0.01498)

Acuracia obtida com o Neural Net no Conjunto de Treinamento: 1.00
Acuracia obtida com o Neural Net no Conjunto de Teste: 0.75
Matriz de Confusão:
[[14  8]
 [ 2 16]]
Precision: 0.77083
Recall: 0.76263
F1-score: 0.74937
(Tempo de execucao: 0.00787)
