
 Média do Conjunto de Treinamento por Feature:
[1.815625 2.64375  2.6125   0.36875  0.4625   0.90625  2.096875 1.978125
 2.571875 0.971875 0.678125 1.103125 0.20625  0.121875 0.48125  0.23125
 0.08125  0.228125 0.559375 0.16875  0.6      0.0875   0.021875 0.115625
 0.715625 2.19375  0.9375   0.30625  0.278125 0.453125 1.68125  1.66875
 2.2      0.58125  0.4375   0.775    0.128125 0.053125 0.24375  0.08125
 0.028125 0.0875   0.340625 0.075    0.340625 0.034375 0.009375 0.05625
 0.26875  1.025    0.39375  0.0875   0.11875  0.19375  0.8375   1.08125
 1.25     0.25625  0.21875  0.3625   0.025    0.025    0.10625  0.03125
 0.01875  0.03125  0.10625  0.01875  0.1      0.0125   0.       0.0125
 0.55625  1.734375 0.83125  0.18125  0.184375 0.334375 1.315625 1.275
 1.81875  0.43125  0.328125 0.6375   0.1      0.053125 0.196875 0.08125
 0.021875 0.0875   0.253125 0.06875  0.303125 0.0375   0.0125   0.04375
 0.2625   0.9625   0.4125   0.09375  0.1      0.2125   0.79375  1.05
 1.2      0.23125  0.21875  0.35     0.0375   0.01875  0.1      0.03125
 0.0125   0.025    0.0875   0.0125   0.09375  0.       0.       0.0125
 0.       0.41875  0.       0.0125   0.00625  0.00625  0.1625   0.15
 0.25625  0.03125  0.01875  0.075    0.00625  0.       0.0125   0.
 0.       0.       0.       0.       0.01875  0.       0.       0.
 0.4125   1.10625  0.6625   0.11875  0.14375  0.2625   0.89375  1.025
 1.3375   0.29375  0.25     0.45     0.06875  0.03125  0.1625   0.025
 0.025    0.0375   0.1625   0.025    0.2125   0.01875  0.       0.01875 ]
Média do Conjunto de Treinamento por Feature:
[1.59748032 1.8391468  1.69092246 0.72346281 0.86340532 1.13356118
 1.48270959 1.57355775 1.43814863 1.08288803 0.99741365 1.20428515
 0.5544916  0.48972848 0.84203529 0.6395494  0.40653836 0.59646583
 0.87566381 0.47066276 0.8782084  0.39350191 0.15152222 0.33644221
 0.83032726 1.66675911 0.89224086 0.69594248 0.77811245 0.71326029
 1.25060923 1.5750868  1.33720791 0.81564296 0.84917239 1.02286363
 0.45499614 0.28282545 0.5476869  0.30045538 0.21828075 0.40136486
 0.6832182  0.29685855 0.72752121 0.17785067 0.08788976 0.24358969
 0.45719081 1.01211412 0.54882687 0.32379585 0.46599189 0.42568878
 0.80535318 1.18306739 0.8660254  0.47758344 0.59866388 0.60711922
 0.15612495 0.19202864 0.32781235 0.17399264 0.17577951 0.17399264
 0.32781235 0.13564084 0.32015621 0.11110243 0.         0.11110243
 0.71367775 1.5741286  0.85492598 0.4454194  0.44938108 0.4991301
 1.07619392 1.24222582 1.12983337 0.59025286 0.66390623 0.87491071
 0.325      0.2772458  0.46130547 0.26743866 0.14083318 0.26545951
 0.55055902 0.25302853 0.59449788 0.19803724 0.09601432 0.19675095
 0.45397549 0.95451231 0.58510149 0.33160358 0.39051248 0.43857012
 0.80697642 1.19791486 0.84261498 0.47725616 0.50832906 0.61441029
 0.18998355 0.17577951 0.32015621 0.17399264 0.11110243 0.15612495
 0.28256636 0.11110243 0.31218734 0.         0.         0.11110243
 0.         0.79429115 0.         0.11110243 0.0788095  0.0788095
 0.43138585 0.35707142 0.50307647 0.17399264 0.13564084 0.32691742
 0.0788095  0.         0.11110243 0.         0.         0.
 0.         0.         0.13564084 0.         0.         0.
 0.55212657 1.02223331 0.64116593 0.37702578 0.43079686 0.53018275
 0.75495757 1.08943793 0.78172486 0.50740609 0.55901699 0.678233
 0.2766287  0.2068174  0.3854786  0.15612495 0.19202864 0.18998355
 0.3854786  0.15612495 0.45259667 0.13564084 0.         0.13564084]