
 Média do Conjunto de Treinamento por Feature:
[1.12358859e+02 3.68734924e+03 1.35799932e+01 7.28897519e+01
 8.02864442e-03 7.42279326e+00]
Média do Conjunto de Treinamento por Feature:
[2.61429398e+01 1.60970570e+03 4.22902320e+01 1.30213888e+01
 6.00001070e-03 3.95482088e-01]