
#######Tipo de Nomalização MinMaxScaler#############

[[0.13466779 0.00581699 0.91739578 ... 0.95138925 0.12359324 0.08452296]
 [0.02876805 0.05417971 0.40506813 ... 0.38704602 0.58809091 0.57386777]
 [0.01022706 0.14547967 0.26506497 ... 0.26413124 0.63570993 0.22294487]
 ...
 [0.01915838 0.02569726 0.48444192 ... 0.48730621 0.4925831  0.0855128 ]
 [0.00144851 0.25103212 0.06382018 ... 0.06469341 0.89603097 0.4089734 ]
 [0.00909045 0.51476236 0.22379108 ... 0.2169468  0.83274415 0.15109576]]
Elbow Method: Número de Cluster - 2 Valor - 50.16061788281924

Elbow Method: Número de Cluster - 3 Valor - 38.538262328360815

Elbow Method: Número de Cluster - 4 Valor - 31.66501936543127

Elbow Method: Número de Cluster - 5 Valor - 25.026321059008744

Elbow Method: Número de Cluster - 6 Valor - 19.736151026257396

Elbow Method: Número de Cluster - 7 Valor - 17.879270713602565

Elbow Method: Número de Cluster - 8 Valor - 16.70577640847979

Elbow Method: Número de Cluster - 9 Valor - 15.652861685663579

Elbow Method: Número de Cluster - 10 Valor - 14.769178723956916

VARIÂNCIA DAS MELHORES FEATURES
[0.56591799 0.20116617]

COORDENADA DOS CENTROIDES

[[ 0.50420074 -0.04669716]
 [-0.71489131 -0.01029221]
 [-0.06759275  0.03007707]]

TABELA DE DISTÂNCIAS

[[0.72753289 1.27576075 1.91843175]
 [0.46692986 0.46706267 1.04532302]
 [0.55721376 0.15848107 0.66325342]
 [0.44271653 0.2033121  0.77752145]
 [0.18493665 0.51893759 1.15992469]
 [0.70957332 0.20673869 0.51044886]
 [0.40409398 0.86570125 1.50259396]
 [0.33482412 0.3393617  0.91645627]
 [0.32653138 0.53581992 1.08297608]
 [0.54391656 0.13481125 0.66992586]
 [0.65236924 0.09722362 0.55477102]
 [0.5148295  0.14575094 0.69959204]
 [0.86993081 0.4611523  0.51882359]
 [0.71514103 0.22575804 0.51257331]
 [0.41995425 0.36606538 0.96633355]
 [0.57482552 0.08417463 0.63227245]
 [0.67843986 0.37973093 0.68001133]
 [0.65040038 0.39462712 0.86174094]
 [0.18594219 0.46328035 1.07056264]
 [0.27064879 0.32016619 0.94072121]
 [0.04685852 0.57642603 1.20546231]
 [0.70452599 0.1705451  0.50431208]
 [0.07722426 0.6251101  1.25247446]
 [0.74343227 0.17393378 0.48501615]
 [0.38150278 0.47847064 1.08639213]
 [0.44871101 0.5307437  1.11853472]
 [0.66270615 0.43319081 0.895632  ]
 [1.75771716 1.80957623 2.17675064]
 [0.38311565 0.85496707 1.4344683 ]
 [0.27474755 0.3129415  0.93522136]
 [0.47876092 0.38190479 0.85855015]
 [0.7633635  0.64913888 1.09180628]
 [0.30251817 0.59366031 1.15217311]
 [0.25768013 0.41134421 1.04894121]
 [0.90649046 0.39001576 0.50714251]
 [0.59813462 1.16683057 1.79275288]
 [0.64160204 0.2468446  0.61514945]
 [0.13913377 0.43239703 1.07005187]
 [0.88026041 0.43230664 0.64390142]
 [0.61775451 0.18759951 0.69143776]
 [1.17094997 0.61374484 0.06249869]
 [0.29922911 0.86807974 1.49721965]
 [0.82939525 0.37466061 0.46990477]
 [0.54625541 0.32593977 0.86678755]
 [0.81788308 0.33491031 0.444248  ]
 [0.08931195 0.63124717 1.25674942]
 [0.93380241 0.43262951 0.53784318]
 [0.7604794  0.20461441 0.49882226]
 [0.66056188 0.32412351 0.64966957]
 [0.16405296 0.45658891 1.07244782]
 [0.21258736 0.43656764 1.04021524]
 [0.69046921 0.22231671 0.54264977]
 [0.45395618 0.40149351 0.89150139]
 [0.29383812 0.33787398 0.97652167]
 [1.08047895 1.64566185 2.28593596]
 [0.43727945 0.95567703 1.59757146]
 [1.24441849 1.16060651 1.48971748]
 [0.41347832 0.27009987 0.88732361]
 [1.03451843 0.46571372 0.26125777]
 [1.85390233 1.29259814 0.64992907]
 [0.31138549 0.42824779 0.992729  ]
 [0.44451452 0.14737573 0.76246154]
 [0.09721712 0.48951082 1.1181071 ]
 [0.18710934 0.39229545 1.0213297 ]
 [0.57585654 0.16766294 0.71589203]
 [0.57839721 0.43988641 0.96123961]
 [0.84393424 0.72133413 1.13110343]
 [0.83836243 0.26993082 0.40621173]
 [0.22998866 0.34212456 0.97685511]
 [0.49147471 0.08011152 0.71918968]
 [0.29218883 0.73247137 1.31447084]
 [0.25431759 0.54818634 1.12404176]
 [0.4714922  1.04208822 1.67260405]
 [0.96586646 0.40576375 0.24097811]
 [0.91620786 0.43089005 0.57320078]
 [0.7393599  0.18410041 0.4672101 ]
 [0.55192277 0.14036619 0.71826347]
 [0.1377734  0.44207094 1.07179928]
 [0.58514517 0.27483595 0.6916947 ]
 [0.42190375 0.15481985 0.78499253]
 [0.41481888 0.97178491 1.61339257]
 [0.46110736 0.55695818 1.03578127]
 [0.48500042 0.12610781 0.72299799]
 [0.30786536 0.52804977 1.08341787]
 [0.78882753 0.28916892 0.44890379]
 [0.54816981 0.18198163 0.74795872]
 [0.38164678 0.64233513 1.17118634]
 [0.38915452 0.93699726 1.54925495]
 [0.71902575 0.20309855 0.49666492]
 [0.46694231 0.11019352 0.74044316]
 [0.40274384 0.23207337 0.81809953]
 [0.50990365 0.28609031 0.76572344]
 [0.41645302 0.9758495  1.61705414]
 [0.25016514 0.41705817 1.01072976]
 [0.32396838 0.81034312 1.45109367]
 [0.60875387 0.18901335 0.70136725]
 [1.03031217 0.53399956 0.32115585]
 [0.74051211 0.19626144 0.53028382]
 [0.25533746 0.33260076 0.97527067]
 [0.52906839 0.26415577 0.73638445]
 [0.67476798 0.13903143 0.53266216]
 [0.58193979 0.07356999 0.65661294]
 [0.76048882 0.29593132 0.49770115]
 [0.69628354 0.31368114 0.72905683]
 [1.38094223 0.81970201 0.17785433]
 [1.07533146 0.50426998 0.17837363]
 [0.97554871 0.41410153 0.23105042]
 [0.81672681 0.24577855 0.40287461]
 [0.39045945 0.7486009  1.373657  ]
 [1.05915475 0.50624062 0.16103311]
 [0.48682206 0.18289357 0.78898683]
 [0.43155205 0.55635195 1.05193889]
 [0.52591834 0.16892894 0.75530217]
 [0.32623553 0.84938356 1.45288528]
 [1.23891291 0.69062334 0.39765288]
 [0.3915728  0.19697685 0.83843358]
 [1.32041014 0.75157869 0.1291749 ]
 [0.92127597 0.7090406  1.04485755]
 [0.57695641 0.12177537 0.6347293 ]
 [0.69177484 0.34656723 0.63351671]
 [0.76844084 0.28227121 0.5953452 ]
 [0.30229454 0.55063049 1.10798416]
 [1.28255825 0.7415925  0.17781834]
 [0.93549396 0.37185458 0.3558574 ]
 [0.32920189 0.27500773 0.91562982]
 [0.1190338  0.68519877 1.31552969]
 [0.20625003 0.77408078 1.40360442]
 [0.3228663  0.37635414 0.94764957]
 [0.3365415  0.24735659 0.88997449]
 [0.8832777  0.3125512  0.33747287]
 [0.61871993 0.07480862 0.58807246]
 [0.61390274 0.10743378 0.59427436]
 [0.34753247 0.2415511  0.88367907]
 [0.76409371 0.48009209 0.86454639]
 [0.60994801 0.0703095  0.62442998]
 [0.65849868 0.30874048 0.63950312]
 [1.48156685 0.91070649 0.3321788 ]
 [0.6496036  0.17809119 0.57201384]
 [0.54400925 1.10719655 1.74774826]
 [0.36598925 0.20983479 0.84067683]
 [0.58093134 0.26552726 0.68987252]
 [1.19885536 0.63345022 0.01767454]
 [0.47112158 0.31184524 0.81231234]
 [0.22489641 0.47398911 1.06614734]
 [0.38783124 0.21394962 0.82278218]
 [0.66577753 0.09491365 0.54884666]
 [0.33873424 0.32401532 0.90483168]
 [0.97570091 0.40486155 0.27395537]
 [0.39176541 0.42065728 0.94529415]
 [1.01466067 0.47108928 0.21775722]
 [1.30283829 0.73694811 0.09790648]
 [0.72415272 0.16889457 0.52684815]
 [1.68320433 1.11524892 0.47857571]
 [0.22734993 0.77977093 1.42122609]
 [0.13645135 0.45128386 1.07800876]
 [1.52394612 0.95838614 0.31745851]
 [0.97397652 0.43934047 0.26630786]
 [0.7089517  0.49784851 0.93654885]
 [0.28305093 0.56476253 1.12987793]
 [0.41600021 0.21221163 0.80102604]
 [1.43266092 0.87661848 0.24093707]
 [1.13060728 0.60152364 0.20146724]
 [0.7055337  0.19741954 0.51164831]
 [1.2484409  0.68888792 0.05837942]
 [0.35923922 0.29020701 0.87378235]
 [1.15944253 0.60199296 0.06766556]
 [0.87412798 0.3684741  0.53708996]
 [0.29792168 0.30649632 0.91835418]
 [0.57923539 0.12280416 0.63261251]
 [0.38134445 0.22125427 0.86026404]
 [0.57767448 0.0920085  0.62997096]
 [0.23942651 0.65023462 1.28907285]
 [0.76397698 0.19320989 0.45251614]
 [1.11695741 1.18638519 1.632006  ]
 [0.44226507 0.31412183 0.83434216]
 [0.53355204 0.42558418 0.85624818]
 [0.81437698 0.25363382 0.44910618]
 [0.71893953 0.16675248 0.48764912]
 [0.6594185  0.12861347 0.54812745]
 [0.68086612 0.1161668  0.52804219]
 [1.80632386 1.24082411 0.59975462]
 [0.62601819 0.05523664 0.58776222]
 [0.52873402 0.43646173 0.86999881]
 [0.09354437 0.48242092 1.12147962]
 [0.21037241 0.38384334 1.00503636]
 [0.61234982 0.24529307 0.64600882]
 [1.46514805 0.89995395 0.25861128]
 [0.22248083 0.42271106 1.02602062]
 [0.96677567 0.48333199 0.36861704]
 [0.96293289 0.40884336 0.2477593 ]
 [0.19826321 0.45432422 1.09575031]
 [0.94813425 0.40630386 0.27589661]
 [0.69010783 0.14097314 0.5164789 ]
 [0.8056991  0.4105108  0.55114804]
 [0.16047836 0.72368177 1.35145423]
 [0.51490172 0.19048626 0.77702691]
 [0.28976403 0.44583194 1.01686089]
 [0.29368436 0.61701493 1.18065023]
 [1.133904   0.56336832 0.18730214]
 [1.13801962 0.57139285 0.07556193]]

RÓTULO DADO PELO KMEANS DAS AMOSTRAS

[0 0 1 1 0 1 0 0 0 1 1 1 1 1 1 1 1 1 0 0 0 1 0 1 0 0 1 0 0 0 1 1 0 0 1 0 1
 0 1 1 2 0 1 1 1 0 1 1 1 0 0 1 1 0 0 0 1 1 2 2 0 1 0 0 1 1 1 1 0 1 0 0 0 2
 1 1 1 0 1 1 0 0 1 0 1 1 0 0 1 1 1 1 0 0 0 1 2 1 0 1 1 1 1 1 2 2 2 1 0 2 1
 0 1 0 2 1 2 1 1 1 1 0 2 2 1 0 0 0 1 1 1 1 1 1 1 1 2 1 0 1 1 2 1 0 1 1 1 2
 0 2 2 1 2 0 0 2 2 1 0 1 2 2 1 2 1 2 1 0 1 1 1 0 1 0 1 1 1 1 1 1 2 1 1 0 0
 1 2 0 2 2 0 2 1 1 0 1 0 0 2 2]
[0 0 1 1 0 1 0 0 0 1 1 1 1 1 1 1 1 1 0 0 0 1 0 1 0 0 1 0 0 0 1 1 0 0 1 0 1
 0 1 1 2 0 1 1 1 0 1 1 1 0 0 1 1 0 0 0 1 1 2 2 0 1 0 0 1 1 1 1 0 1 0 0 0 2
 1 1 1 0 1 1 0 0 1 0 1 1 0 0 1 1 1 1 0 0 0 1 2 1 0 1 1 1 1 1 2 2 2 1 0 2 1
 0 1 0 2 1 2 1 1 1 1 0 2 2 1 0 0 0 1 1 1 1 1 1 1 1 2 1 0 1 1 2 1 0 1 1 1 2
 0 2 2 1 2 0 0 2 2 1 0 1 2 2 1 2 1 2 1 0 1 1 1 0 1 0 1 1 1 1 1 1 2 1 1 0 0
 1 2 0 2 2 0 2 1 1 0 1 0 0 2 2]

#######Tipo de Nomalização StandardScaler#############

[[ 0.82390449 -0.89538565  3.17089188 ...  3.40393089 -3.16704085
  -1.11937723]
 [-0.12006097 -0.60877081  0.41904966 ...  0.35221854 -0.24024253
   1.93529597]
 [-0.28533102 -0.06769438 -0.33294295 ... -0.31244891  0.05980477
  -0.25529595]
 ...
 [-0.20571937 -0.77756801  0.84538649 ...  0.8943802  -0.84203692
  -1.11319828]
 [-0.363581    0.55784738 -1.41387996 ... -1.39091824  1.70008682
   0.90596368]
 [-0.2954625   2.12080759 -0.55463557 ... -0.56760092  1.30131676
  -0.70380492]]
Elbow Method: Número de Cluster - 2 Valor - 2131.4325624453586

Elbow Method: Número de Cluster - 3 Valor - 1601.116386804562

Elbow Method: Número de Cluster - 4 Valor - 1179.6043302232933

Elbow Method: Número de Cluster - 5 Valor - 966.9640640913419

Elbow Method: Número de Cluster - 6 Valor - 781.0729424426605

Elbow Method: Número de Cluster - 7 Valor - 708.727293044114

Elbow Method: Número de Cluster - 8 Valor - 665.5852751130034

Elbow Method: Número de Cluster - 9 Valor - 611.7558936170792

Elbow Method: Número de Cluster - 10 Valor - 575.5122876867933

VARIÂNCIA DAS MELHORES FEATURES
[0.50269183 0.24239113]

COORDENADA DOS CENTROIDES

[[ 5.32880277 11.71641082]
 [-1.95230921  0.2346999 ]
 [ 2.05441369 -0.64992089]]

TABELA DE DISTÂNCIAS

[[11.79690821  4.82064486  8.78399368]
 [11.07912687  2.01821173  3.65764617]
 [13.77261914  2.52569602  1.7961326 ]
 [13.74410235  2.02621586  2.34343382]
 [10.34685161  2.48633418  5.21128556]
 [14.07639856  3.54648359  0.95095046]
 [11.32315261  2.54454316  6.31151003]
 [13.2771314   1.04169383  3.17333559]
 [14.13530604  1.34358211  4.2181882 ]
 [13.51771309  2.25265767  1.95132047]
 [13.50860704  3.37492698  0.74710632]
 [13.65654211  2.28046637  1.99493374]
 [15.16413317  4.23962669  1.74523242]
 [14.19353059  3.52479148  1.09083734]
 [11.7459319   1.76747804  3.02859193]
 [13.66189761  2.74951429  1.481893  ]
 [14.86562707  3.07340293  2.37860954]
 [ 9.57961525  4.17374145  4.08417288]
 [13.42343982  0.63181338  4.09185555]
 [13.34125048  1.12955046  3.1108133 ]
 [13.16487745  0.70728913  4.71326518]
 [13.88076434  3.47134191  0.85003166]
 [12.97233356  0.93703448  5.02519664]
 [13.33983642  3.68631286  0.43733192]
 [11.17765581  1.82333303  3.77302282]
 [10.91678009  2.08525836  3.86516251]
 [10.64701436  3.3764315   3.1110119 ]
 [ 1.83412862 14.49432502 15.42151671]
 [14.31979461  2.32456978  6.07706451]
 [13.22704463  1.10124619  3.07969503]
 [14.48597899  2.118336    3.11075237]
 [ 9.22131884  4.14404206  4.55180686]
 [14.1306759   1.37881058  4.59843904]
 [11.18957187  1.66159745  4.09761065]
 [12.46051612  4.60306937  1.37316312]
 [12.36655903  4.53037992  8.57603862]
 [14.36624163  3.03602491  1.77524664]
 [12.87214052  0.25894756  3.85365381]
 [11.842958    4.29628482  1.81060676]
 [12.14822575  3.03062212  1.69208227]
 [14.42332823  6.02053344  1.91814135]
 [13.16659977  2.31891232  6.41239198]
 [14.8451146   4.1000773   1.42356962]
 [10.41420636  3.08319881  3.56947906]
 [14.57337101  3.92067811  1.20285539]
 [13.10209898  1.03186196  5.09612073]
 [12.20150913  4.81559785  1.72283382]
 [12.85848047  3.94271325  0.73788303]
 [14.70531789  3.12355603  2.09816459]
 [12.9081428   0.17264125  3.97130889]
 [13.57474838  0.8107866   3.92774916]
 [14.20716741  3.48720926  1.14095491]
 [14.39892489  1.95489949  3.23180232]
 [12.31267774  1.04757727  3.25930731]
 [11.63080686  8.06252551 11.91768601]
 [11.37265507  3.22242978  7.07236415]
 [ 1.89912924 11.56946441 11.97059815]
 [12.02172434  1.62120224  2.90458389]
 [13.4095384   5.4589926   1.50735672]
 [16.7963444  10.25094533  6.14803942]
 [14.06036819  1.42013728  3.59565835]
 [13.39364432  2.05717167  2.11087675]
 [13.16539473  0.39469841  4.23569551]
 [13.18187457  0.54035403  3.72552897]
 [12.45208969  2.6433129   1.71481382]
 [10.93418578  2.73156569  3.14049325]
 [ 9.55474194  3.85632388  4.25349322]
 [13.40895082  4.30238273  0.33112797]
 [12.9908115   0.75905756  3.36163195]
 [13.0344611   2.2570828   1.84729696]
 [13.85915714  1.70893657  5.54955223]
 [13.94929904  1.16172107  4.32498637]
 [12.19139571  3.6541787   7.6887196 ]
 [14.2694248   4.95917412  0.92876771]
 [11.48143691  5.06120372  2.45458508]
 [13.74963854  3.66143714  0.55545571]
 [11.95150652  2.67841102  2.08237729]
 [13.0837447   0.32320894  3.95978983]
 [14.42845275  2.76968156  2.14970402]
 [13.06389198  1.89388809  2.21083884]
 [12.15291503  3.05523925  7.08600995]
 [14.88569712  2.12000653  4.20084346]
 [13.40659566  2.26974944  1.88812857]
 [14.16009837  1.3680852   4.23445117]
 [14.40036509  3.7681625   1.10907117]
 [12.15031256  2.59050953  1.97417543]
 [14.46665375  1.73452507  4.8199204 ]
 [13.17309476  2.66293212  6.76064977]
 [14.04758251  3.41401959  1.05390638]
 [13.20223672  2.226535    1.88501132]
 [13.19070912  1.54812663  2.58686469]
 [14.20219455  2.28687284  2.47119632]
 [12.17204759  3.23293652  7.26666752]
 [13.56608815  0.97960078  3.53045468]
 [11.52196874  2.18482061  5.98989891]
 [12.29386403  2.88500658  1.65638621]
 [15.24219782  5.13538948  1.66748883]
 [12.88943422  3.68523867  0.74722402]
 [12.56256782  0.72581299  3.44327998]
 [14.06427425  2.34175294  2.25362162]
 [13.77630639  3.36756399  0.88216614]
 [12.90769125  2.79015671  1.36398307]
 [14.57175679  3.73788989  1.33722533]
 [11.7952947   3.25930515  1.92154886]
 [15.1805441   7.26732695  3.16947406]
 [13.90251356  5.54590176  1.46185732]
 [14.24315897  5.15800965  1.08384863]
 [13.45477717  3.92929434  0.19544665]
 [10.21532996  2.88224634  5.95695668]
 [14.69627881  5.58342091  1.56640338]
 [12.14735441  2.1907143   2.29030642]
 [14.55336845  1.77554864  4.17104508]
 [12.42488115  2.45100049  1.8857945 ]
 [13.0342241   2.25618387  6.35664571]
 [13.18622213  6.60665071  2.79793799]
 [12.21672235  1.80274534  2.58167591]
 [14.86857207  7.14512253  3.04212088]
 [ 9.89104893  4.22458103  3.72378668]
 [13.79136415  2.78659411  1.52007482]
 [14.69646696  3.24573976  1.95430655]
 [12.06457641  3.68236658  1.54272276]
 [14.2111705   1.42663191  4.43714284]
 [15.52234217  6.80019364  2.79346442]
 [13.24620458  4.75230095  0.86695452]
 [12.38291909  1.41499298  2.844696  ]
 [13.0661234   1.37712623  5.46193554]
 [12.96216932  1.80364928  5.90415751]
 [13.89466067  1.32381634  3.45783466]
 [12.66467058  1.14730036  2.98683136]
 [13.5610531   4.29366434  0.21741557]
 [13.5600486   2.96588319  1.19989422]
 [13.67370084  2.89467845  1.33046685]
 [12.6233736   1.43720418  2.71668768]
 [10.90071991  3.66700287  2.73758191]
 [12.89967105  2.91450002  1.25740908]
 [14.61707358  3.01137136  2.10782086]
 [14.52383006  8.06941926  4.03389273]
 [14.00416864  3.11168265  1.33003459]
 [12.50043583  3.66202204  7.73310903]
 [13.11334817  1.60125923  2.51484099]
 [14.32043901  2.61100023  2.20939614]
 [14.66113769  6.50508148  2.402729  ]
 [14.11347516  1.90430601  2.87055319]
 [13.42112583  0.63695017  4.02075934]
 [13.34282968  1.57095545  2.61606057]
 [13.3919908   3.23243019  0.87445324]
 [13.57949568  1.33100332  3.04872091]
 [12.30268697  5.08379098  1.8269013 ]
 [14.33385129  1.73540968  3.52324858]
 [14.73809539  5.29405404  1.37616941]
 [14.94709632  7.02078609  2.91896506]
 [12.92620687  3.57737387  0.76173977]
 [16.02221787  9.37315275  5.27137087]
 [12.33096045  1.90997234  5.96377141]
 [13.10198835  0.3289669   3.98925633]
 [15.63327901  8.38036833  4.27738104]
 [14.72468511  5.03504659  1.22774803]
 [10.0666029   3.96790839  3.58025534]
 [14.04523105  1.26249941  4.39881446]
 [13.58914565  1.80156542  2.49312859]
 [15.63816198  7.81178289  3.7231168 ]
 [15.38429107  5.92802581  2.09955971]
 [13.80631867  3.43746803  0.82890879]
 [14.95944035  6.60514808  2.51903863]
 [13.5775079   1.25817186  3.14085132]
 [14.91607011  6.10945419  2.06360379]
 [12.38904205  4.44214587  1.35163079]
 [13.41089441  1.06187194  3.24347805]
 [13.57930954  2.63114819  1.56888451]
 [12.52697354  1.54702933  2.64716763]
 [13.22086711  2.56697117  1.53890229]
 [11.71341857  1.31144296  4.97758874]
 [13.44737527  3.7503913   0.35460121]
 [ 0.7531774  12.43154789 13.45185601]
 [14.11928683  1.91499761  2.86312963]
 [14.69374748  2.31910753  3.15187081]
 [13.13404789  4.05510109  0.47029201]
 [13.69975648  3.38159455  0.8200322 ]
 [13.68899958  3.10681683  1.1092562 ]
 [13.41560133  3.30735175  0.80006254]
 [16.6326026  10.06171294  5.95855636]
 [12.89190047  2.93478597  1.24307004]
 [14.76613421  2.32744771  3.27796235]
 [12.65824056  0.19739053  4.25460078]
 [13.22805402  0.69072731  3.56371312]
 [14.11627812  2.68724661  1.90087798]
 [15.21769611  7.83065169  3.72774983]
 [13.63513311  0.94662361  3.71442769]
 [15.1725773   4.78901835  1.5799457 ]
 [14.40246709  5.00911982  1.02289677]
 [12.27031546  0.61650699  3.84242541]
 [14.54297282  4.93031727  1.05625329]
 [13.66434736  3.31928571  0.86767337]
 [15.04955893  3.7641524   1.93002969]
 [13.20933588  1.51651838  5.58140371]
 [12.28604453  2.29930464  2.10070147]
 [13.9531876   1.22569467  3.8174623 ]
 [14.30392643  1.58136093  4.78081567]
 [14.01143526  6.02385153  1.94762051]
 [14.3708044   6.17720409  2.07482578]]

RÓTULO DADO PELO KMEANS DAS AMOSTRAS

[1 1 2 1 1 2 1 1 1 2 2 2 2 2 1 2 2 2 1 1 1 2 1 2 1 1 2 0 1 1 1 1 1 1 2 1 2
 1 2 2 2 1 2 1 2 1 2 2 2 1 1 2 1 1 1 1 0 1 2 2 1 1 1 1 2 1 1 2 1 2 1 1 1 2
 2 2 2 1 2 1 1 1 2 1 2 2 1 1 2 2 1 1 1 1 1 2 2 2 1 2 2 2 2 2 2 2 2 2 1 2 1
 1 2 1 2 1 2 2 2 2 2 1 2 2 1 1 1 1 1 2 2 2 1 2 2 2 2 2 1 1 2 2 1 1 1 2 1 2
 1 2 2 2 2 1 1 2 2 2 1 1 2 2 2 2 1 2 2 1 2 1 2 1 2 0 1 1 2 2 2 2 2 2 1 1 1
 2 2 1 2 2 1 2 2 2 1 2 1 1 2 2]
[1 1 2 1 1 2 1 1 1 2 2 2 2 2 1 2 2 2 1 1 1 2 1 2 1 1 2 0 1 1 1 1 1 1 2 1 2
 1 2 2 2 1 2 1 2 1 2 2 2 1 1 2 1 1 1 1 0 1 2 2 1 1 1 1 2 1 1 2 1 2 1 1 1 2
 2 2 2 1 2 1 1 1 2 1 2 2 1 1 2 2 1 1 1 1 1 2 2 2 1 2 2 2 2 2 2 2 2 2 1 2 1
 1 2 1 2 1 2 2 2 2 2 1 2 2 1 1 1 1 1 2 2 2 1 2 2 2 2 2 1 1 2 2 1 1 1 2 1 2
 1 2 2 2 2 1 1 2 2 2 1 1 2 2 2 2 1 2 2 1 2 1 2 1 2 0 1 1 2 2 2 2 2 2 1 1 1
 2 2 1 2 2 1 2 2 2 1 2 1 1 2 2]

#######Tipo de Nomalização MaxAbsScaler#############

[[0.13633046 0.01414829 0.9271707  ... 0.95719419 0.66351232 0.15304855]
 [0.0306342  0.06210573 0.47546907 ... 0.46024299 0.84185159 0.60576476]
 [0.01212883 0.1526406  0.35203311 ... 0.35200628 0.86013444 0.28110925]
 ...
 [0.02104298 0.03386197 0.54545021 ... 0.54853043 0.80518232 0.1539643 ]
 [0.00336714 0.25730851 0.17460251 ... 0.17638467 0.96008212 0.45321312]
 [0.0109944  0.51882868 0.31564333 ... 0.31045646 0.93578378 0.21463822]]
Elbow Method: Número de Cluster - 2 Valor - 38.80200265029417

Elbow Method: Número de Cluster - 3 Valor - 29.073300604027622

Elbow Method: Número de Cluster - 4 Valor - 21.42459853117761

Elbow Method: Número de Cluster - 5 Valor - 17.06316955757803

Elbow Method: Número de Cluster - 6 Valor - 14.034597821903382

Elbow Method: Número de Cluster - 7 Valor - 12.71352760968749

Elbow Method: Número de Cluster - 8 Valor - 11.821762326323634

Elbow Method: Número de Cluster - 9 Valor - 10.988719470450157

Elbow Method: Número de Cluster - 10 Valor - 10.255199780022844

VARIÂNCIA DAS MELHORES FEATURES
[0.51404136 0.23199925]

COORDENADA DOS CENTROIDES

[[-0.09497489 -0.10336995]
 [ 0.50405847  0.03671674]
 [-0.37253823  0.32359719]]

TABELA DE DISTÂNCIAS

[[1.41880983 0.53723677 0.83586203]
 [0.78582126 0.16466601 0.41089426]
 [0.4974988  0.61211784 0.14256956]
 [0.66302243 0.51256094 0.03854444]
 [0.85492377 0.15652432 0.35477428]
 [0.42582966 0.65912549 0.2139948 ]
 [1.10376886 0.21166404 0.56709722]
 [0.67091322 0.52743784 0.05494226]
 [0.81930816 0.60618575 0.22590255]
 [0.46914125 0.620047   0.16646991]
 [0.45924558 0.55196535 0.18266658]
 [0.53688987 0.58119008 0.10058847]
 [0.39838003 0.91349824 0.43559279]
 [0.42983305 0.68145506 0.22304338]
 [0.7696907  0.18884098 0.33645361]
 [0.55374902 0.53195354 0.07617917]
 [0.55656829 0.78674369 0.2809123 ]
 [0.60237315 0.45372695 0.53975686]
 [0.82135918 0.47110742 0.19216047]
 [0.77322178 0.41785945 0.15165686]
 [0.93326132 0.40237595 0.31082722]
 [0.42247584 0.63412853 0.20853559]
 [0.9483394  0.40170842 0.32631214]
 [0.41518587 0.56096569 0.24540767]
 [0.83070218 0.11879572 0.40764734]
 [0.8731424  0.08355287 0.47407964]
 [0.69115552 0.31945171 0.48707081]
 [1.87781819 1.34711383 1.79064725]
 [1.10443333 0.63757916 0.48223601]
 [0.7523344  0.4168459  0.13373065]
 [0.70170013 0.65924989 0.18278997]
 [0.85988038 0.32307159 0.65587293]
 [0.84924447 0.59764744 0.24712346]
 [0.80816323 0.19702272 0.30985762]
 [0.36685746 0.61169767 0.47132985]
 [1.27712017 0.55366326 0.65502854]
 [0.53242353 0.66933072 0.16951912]
 [0.85099011 0.34404258 0.24600079]
 [0.47318746 0.53277721 0.48912259]
 [0.5470679  0.40174334 0.29279389]
 [0.26239824 1.20910343 0.87720542]
 [1.12824551 0.46661937 0.50550915]
 [0.39636723 0.817434   0.3442603 ]
 [0.63295405 0.32822285 0.39304393]
 [0.35984116 0.80892538 0.35038047]
 [0.92564308 0.41462952 0.30112591]
 [0.36356177 0.66639    0.55425273]
 [0.32710899 0.62108906 0.38315062]
 [0.56413528 0.72131    0.21523183]
 [0.80866896 0.42183516 0.1839098 ]
 [0.81151108 0.48327843 0.18282131]
 [0.44633338 0.66965425 0.20630463]
 [0.69549269 0.65490817 0.17606285]
 [0.77146562 0.26385848 0.24401167]
 [1.59471842 0.71157516 1.00320906]
 [1.1506512  0.27623754 0.59361809]
 [1.28860927 0.98941539 1.32399401]
 [0.64764915 0.32449138 0.22856802]
 [0.13038264 0.84737521 0.58908127]
 [0.82345741 1.7550942  1.44234174]
 [0.82658851 0.54304964 0.2081977 ]
 [0.64641329 0.4578508  0.04883888]
 [0.87438521 0.39956641 0.25231129]
 [0.80240091 0.4068641  0.18142333]
 [0.5827357  0.37779128 0.23698296]
 [0.72955556 0.24865483 0.44899477]
 [0.81765648 0.39551885 0.67796209]
 [0.34862376 0.60894757 0.3199112 ]
 [0.78130915 0.37390706 0.17511641]
 [0.5820532  0.45389249 0.10331668]
 [0.9685193  0.57943459 0.34792477]
 [0.87608399 0.5479082  0.25572705]
 [1.22712818 0.48826421 0.61066538]
 [0.18775166 0.82200444 0.44925461]
 [0.41778001 0.66029831 0.59668196]
 [0.39769996 0.62779592 0.23171538]
 [0.52669991 0.42580023 0.26588805]
 [0.83027271 0.39375936 0.21096691]
 [0.60614237 0.65042806 0.14472197]
 [0.59866366 0.45706629 0.08065359]
 [1.16794478 0.36570492 0.5754337 ]
 [0.81351998 0.72353058 0.29214275]
 [0.56090582 0.51261116 0.07460892]
 [0.83650388 0.59432002 0.23494891]
 [0.38060677 0.7605586  0.30272823]
 [0.60125713 0.35427301 0.25795291]
 [0.8843295  0.67160311 0.30814251]
 [1.12753498 0.52789102 0.49895576]
 [0.41625003 0.67749087 0.22922677]
 [0.60441057 0.4484025  0.08534348]
 [0.63542763 0.50505487 0.00626863]
 [0.6246769  0.62674299 0.12359242]
 [1.14872679 0.36469263 0.55266075]
 [0.76474944 0.48517841 0.13613518]
 [1.11002517 0.24706377 0.55486996]
 [0.53615112 0.41344463 0.28448283]
 [0.2909395  0.9759621  0.53148649]
 [0.43002537 0.52213844 0.29230513]
 [0.72956248 0.33611324 0.1722248 ]
 [0.60617778 0.62508243 0.11910567]
 [0.43125557 0.60934431 0.19799207]
 [0.54996253 0.43434797 0.1793608 ]
 [0.44225158 0.7404685  0.26072773]
 [0.55056839 0.4091108  0.38326318]
 [0.34427775 1.29070226 0.95600014]
 [0.03932504 0.91638646 0.61357193]
 [0.17065358 0.81733323 0.46031391]
 [0.26559425 0.70522358 0.36946062]
 [0.99250189 0.04897859 0.53019759]
 [0.15015718 0.89248239 0.51246498]
 [0.57293504 0.38625516 0.23985236]
 [0.78668181 0.69805603 0.25880324]
 [0.61163056 0.35448231 0.2281842 ]
 [1.03556171 0.5187611  0.40636877]
 [0.26608436 0.88869662 0.71893472]
 [0.62093771 0.37192683 0.17728169]
 [0.152526   1.09179135 0.78045583]
 [0.77919722 0.43843786 0.68211244]
 [0.55549918 0.5490432  0.07466905]
 [0.51914159 0.75785194 0.25624333]
 [0.36430241 0.60686635 0.45657751]
 [0.85278679 0.60122894 0.25155401]
 [0.23693063 1.16269822 0.78242606]
 [0.23805038 0.71155104 0.45504434]
 [0.7032248  0.3099651  0.20108213]
 [0.96595929 0.40440895 0.34392473]
 [1.05849501 0.42345682 0.43759603]
 [0.75087119 0.5424831  0.1374278 ]
 [0.66897502 0.37669314 0.13321701]
 [0.21864496 0.75026701 0.41331611]
 [0.50717929 0.53887462 0.12741469]
 [0.47151313 0.59437962 0.15818579]
 [0.69085098 0.34263927 0.16622742]
 [0.67181583 0.36472449 0.51680161]
 [0.48547974 0.48867925 0.21200503]
 [0.53049775 0.74340318 0.24041048]
 [0.45811337 1.34025597 1.08464173]
 [0.48293982 0.62492046 0.15869487]
 [1.29821889 0.4837612  0.6960493 ]
 [0.67322656 0.41767851 0.08905375]
 [0.5631489  0.67144984 0.16607817]
 [0.08101495 1.02909915 0.70252657]
 [0.60192518 0.65788925 0.15188382]
 [0.8106037  0.49599267 0.18311997]
 [0.6219314  0.49183384 0.02080693]
 [0.47055885 0.53744941 0.17695058]
 [0.72278215 0.506658   0.09737804]
 [0.18995029 1.04818698 0.79461089]
 [0.76077267 0.61846709 0.18756066]
 [0.20533827 0.86750006 0.46667149]
 [0.16694342 1.11327788 0.78794266]
 [0.37761551 0.5751026  0.31592062]
 [0.54696449 1.47100155 1.17326818]
 [1.05125083 0.31446364 0.4571417 ]
 [0.83130838 0.39965891 0.21044997]
 [0.37299599 1.31079747 0.99568878]
 [0.24587411 0.85014439 0.43397833]
 [0.69043549 0.41282515 0.58631527]
 [0.85236268 0.57321627 0.2409756 ]
 [0.66265359 0.50222815 0.03433717]
 [0.35886304 1.30634886 0.96582549]
 [0.23333645 0.96192796 0.53826744]
 [0.44492822 0.63619324 0.19081237]
 [0.16487472 1.11107055 0.76423618]
 [0.64362727 0.55729342 0.05999489]
 [0.11500198 0.94962943 0.57610416]
 [0.39016006 0.58455456 0.45490587]
 [0.70873557 0.47924882 0.07953347]
 [0.42132345 0.63958971 0.21072867]
 [0.66954746 0.34324305 0.17485983]
 [0.5188577  0.54594365 0.11165718]
 [0.98853926 0.1715892  0.44881477]
 [0.32765646 0.65192823 0.30961088]
 [1.43558704 0.84812734 1.29167832]
 [0.67387068 0.59887181 0.11552243]
 [0.66291806 0.72418999 0.22821543]
 [0.35359876 0.59959159 0.32854275]
 [0.37569895 0.65704208 0.25400523]
 [0.42905747 0.62295897 0.20084293]
 [0.42087695 0.58508257 0.21604199]
 [0.65810838 1.58766217 1.28057091]
 [0.30215094 0.66287037 0.34291714]
 [0.70667854 0.72149426 0.23939912]
 [0.83880719 0.33193877 0.24026322]
 [0.8099808  0.41217137 0.18721821]
 [0.47070858 0.70751976 0.22246449]
 [0.44253941 1.3791704  1.06440441]
 [0.83628273 0.46986689 0.20706508]
 [0.34543883 0.91438908 0.45198614]
 [0.22373391 0.80197955 0.41617891]
 [0.86980348 0.22956643 0.31559367]
 [0.24084408 0.81925836 0.41520626]
 [0.39747232 0.63278587 0.23175939]
 [0.46636212 0.85481639 0.36116068]
 [1.02656507 0.4306577  0.40283592]
 [0.59322493 0.36737276 0.2387488 ]
 [0.81174658 0.54547426 0.19505852]
 [0.92751354 0.60357605 0.3167789 ]
 [0.12198679 0.8334817  0.55530473]
 [0.06059299 1.00625421 0.68852163]]

RÓTULO DADO PELO KMEANS DAS AMOSTRAS

[1 1 2 2 1 2 1 2 2 2 2 2 0 2 1 2 2 1 2 2 2 2 2 2 1 1 1 1 2 2 2 1 2 1 0 1 2
 2 0 2 0 1 2 1 2 2 0 0 2 2 2 2 2 2 1 1 1 2 0 0 2 2 2 2 2 1 1 2 2 2 2 2 1 0
 0 2 2 2 2 2 1 2 2 2 2 2 2 2 2 2 2 2 1 2 1 2 0 2 2 2 2 2 2 2 0 0 0 0 1 0 2
 2 2 2 0 2 0 1 2 2 0 2 0 0 2 2 1 2 2 0 2 2 2 1 2 2 0 2 1 2 2 0 2 2 2 2 2 0
 2 0 0 2 0 1 2 0 0 1 2 2 0 0 2 0 2 0 0 2 2 2 2 1 2 1 2 2 2 2 2 2 0 0 2 2 2
 2 0 2 0 0 1 0 2 2 2 2 2 2 0 0]
[1 1 2 2 1 2 1 2 2 2 2 2 0 2 1 2 2 1 2 2 2 2 2 2 1 1 1 1 2 2 2 1 2 1 0 1 2
 2 0 2 0 1 2 1 2 2 0 0 2 2 2 2 2 2 1 1 1 2 0 0 2 2 2 2 2 1 1 2 2 2 2 2 1 0
 0 2 2 2 2 2 1 2 2 2 2 2 2 2 2 2 2 2 1 2 1 2 0 2 2 2 2 2 2 2 0 0 0 0 1 0 2
 2 2 2 0 2 0 1 2 2 0 2 0 0 2 2 1 2 2 0 2 2 2 1 2 2 0 2 1 2 2 0 2 2 2 2 2 0
 2 0 0 2 0 1 2 0 0 1 2 2 0 0 2 0 2 0 0 2 2 2 2 1 2 1 2 2 2 2 2 2 0 0 2 2 2
 2 0 2 0 0 1 0 2 2 2 2 2 2 0 0]

#######Tipo de Nomalização RobustScaler#############

[[ 5.45607291 -0.70562106  2.47505275 ...  2.65084901 -2.62181562
  -0.74402936]
 [ 0.66870915 -0.33372522  0.40683106 ...  0.34727039 -0.25752379
   1.61587438]
 [-0.16946539  0.36834616 -0.15834939 ... -0.15445243 -0.0151431
  -0.07647885]
 ...
 [ 0.23428868 -0.5527473   0.72725607 ...  0.75651998 -0.74365826
  -0.73925578]
 [-0.56631372  1.18001517 -0.97075693 ... -0.96853272  1.30989028
   0.82065835]
 [-0.22084769  3.20802741 -0.32496849 ... -0.34705339  0.98776053
  -0.4229768 ]]
Elbow Method: Número de Cluster - 2 Valor - 5421.396354220076

Elbow Method: Número de Cluster - 3 Valor - 3408.1557539192117

Elbow Method: Número de Cluster - 4 Valor - 2513.520158451054

Elbow Method: Número de Cluster - 5 Valor - 2105.4301572680088

Elbow Method: Número de Cluster - 6 Valor - 1861.3790072141028

Elbow Method: Número de Cluster - 7 Valor - 1679.2936764470685

Elbow Method: Número de Cluster - 8 Valor - 1553.3235584860677

Elbow Method: Número de Cluster - 9 Valor - 1462.839752820031

Elbow Method: Número de Cluster - 10 Valor - 1409.0790618797555

VARIÂNCIA DAS MELHORES FEATURES
[0.84149108 0.08858389]

COORDENADA DOS CENTROIDES

[[60.78869662  3.56817337]
 [ 9.45068136 -1.68411718]
 [-1.78091379  0.07998482]]

TABELA DE DISTÂNCIAS

[[ 8.50202762  4.93537113 55.98201954]
 [ 1.89385073 10.43254162 61.98937256]
 [ 0.70600083 11.99712949 63.34604648]
 [ 1.53575166 11.94973872 63.46648472]
 [16.3215033   5.12267056 46.49142907]
 [ 1.09132607 12.3492603  63.51371722]
 [ 3.98482356  9.73727536 61.3104715 ]
 [ 4.04266329  7.32703636 58.73091068]
 [ 2.20509787  9.95680423 61.52238645]
 [ 0.67225523 11.11662915 62.53577242]
 [ 1.16911483 12.23550113 63.3237429 ]
 [ 0.62723857 11.26647521 62.68216267]
 [ 2.22506288 12.72182305 63.49768433]
 [ 1.08579117 12.42816929 63.64856196]
 [ 1.57184116 11.63246894 63.16682676]
 [ 1.31307215 12.21906375 63.67776218]
 [ 0.94448434 12.01714975 63.43059735]
 [14.20466235  4.88813921 48.55961196]
 [ 2.55212758 10.22572977 61.82279195]
 [ 1.68520202 11.70757127 63.25101374]
 [ 2.7950952  10.93750415 62.54309137]
 [ 1.06037536 12.42861953 63.69263203]
 [ 3.50701165  8.98184328 60.58780392]
 [ 1.15781485 12.51322528 63.82322733]
 [ 2.01737181  9.49227965 60.95898864]
 [ 1.49575193 10.3293522  61.82736684]
 [ 3.80486972  7.62993397 58.86909963]
 [64.03871929 52.89978374  2.26599295]
 [ 3.47777382  9.62943403 61.23151346]
 [ 1.39488158 11.01059029 62.53125535]
 [ 1.67751611 11.74062301 63.28226565]
 [ 7.97197479  3.45153178 54.79383846]
 [ 2.12554581 10.2840286  61.85643181]
 [ 9.61406935  1.76147197 53.27256941]
 [ 1.45112946 12.44868973 63.48033091]
 [17.44626438  6.14186092 46.11819503]
 [ 1.16573211 12.24031266 63.66413245]
 [ 2.274319   11.15745651 62.7488832 ]
 [ 0.97139598 12.32315473 63.55895444]
 [ 0.62567557 10.75170824 62.04204462]
 [ 6.26705481 14.46583259 63.46542531]
 [ 4.23685944  9.31341169 60.87655896]
 [ 1.4641865  12.59687091 63.67241191]
 [10.609956    1.72156292 52.08870175]
 [ 1.32536928 12.63881679 63.82092413]
 [ 2.98987854  9.86480065 61.47007474]
 [ 2.3045025  12.72906122 63.47256784]
 [ 2.15459465 12.40447482 63.14754386]
 [ 1.15387596 12.26596859 63.68146193]
 [ 4.01054886  7.44108101 58.95345181]
 [ 2.40094661 11.18729811 62.78395276]
 [ 1.29597986 12.44968902 63.5510756 ]
 [ 1.26080518 11.4599798  62.96403508]
 [ 1.98899697 11.36484447 62.93911639]
 [28.63666245 17.26896956 35.32874461]
 [ 6.80480734  5.65279135 57.15002886]
 [56.28022168 45.38985495  7.02382003]
 [ 1.6912004  10.73457501 62.28109503]
 [ 3.42373907 12.4221964  62.62529665]
 [11.62574823 18.40931555 64.57721478]
 [ 2.04364934 11.66802657 63.2420412 ]
 [ 1.15938897 11.71408343 63.1952707 ]
 [ 2.57974672 11.24538727 62.84739875]
 [ 2.46916614 11.58777148 63.1849922 ]
 [ 1.24221776 12.01139152 63.48214362]
 [ 1.135261   10.33757653 61.74671034]
 [ 1.63952668 10.62848521 62.16612015]
 [ 1.43536472 12.70222079 63.84504396]
 [ 1.95086294 11.16214424 62.73473157]
 [ 0.95605681 10.5756998  61.99018115]
 [ 4.6316805   7.53278974 59.13695341]
 [ 2.11219403 10.52943817 62.10718533]
 [13.82097156  2.71094903 49.65120715]
 [ 2.29947506 13.01432296 63.83539012]
 [ 5.68422448  8.49432776 58.04797443]
 [ 0.73377165 12.08491158 63.33098568]
 [ 4.02591047  7.50212337 58.64140046]
 [ 2.23973543 10.77723624 62.36593199]
 [ 1.18761742 12.01788938 63.47886087]
 [ 0.50400711 10.94443709 62.30503888]
 [ 5.58611912  7.14982973 58.68420774]
 [ 2.24959477 11.66939909 63.25597358]
 [ 0.39365788 11.72778202 63.05086468]
 [ 2.15524843 10.70461632 62.28786532]
 [ 1.06613977 12.43207701 63.72426144]
 [ 1.26760626 10.17443913 61.57823185]
 [ 2.95583928  9.46339368 61.06314765]
 [ 7.92956587  3.94311997 55.50198678]
 [ 1.04201596 12.32445059 63.68459516]
 [ 0.53949305 11.69001502 63.0656259 ]
 [ 3.56925826  7.80990945 59.23764217]
 [ 0.9907696  11.56138745 63.02632075]
 [ 6.53311388  6.40261897 57.83827956]
 [ 0.94240955 10.82476089 62.27222229]
 [ 4.5865294   8.13086561 59.71343049]
 [ 0.70679156 11.99538272 63.34530368]
 [ 2.44196149 13.07221905 63.84364187]
 [ 0.91723769 12.28272185 63.54193334]
 [ 2.11270646 11.23597951 62.81877052]
 [ 1.04420088 10.64936535 62.09796711]
 [ 1.09803079 12.41413431 63.61187899]
 [ 1.09783456 12.19779744 63.61350639]
 [ 0.97006568 12.33925017 63.61233213]
 [ 0.76461439 11.89821009 63.29088506]
 [ 6.29727251 14.98867003 64.14502929]
 [ 3.31270457 13.42545532 63.87379453]
 [ 2.97209308 13.13251005 63.66983626]
 [ 1.17947723 12.45915175 63.62824568]
 [ 9.38984158  2.20564969 53.78651921]
 [ 3.1717535  13.47205756 64.00611743]
 [ 1.261011   10.12420753 61.48889722]
 [ 2.08029079  9.94208282 61.49272967]
 [ 1.03446193 11.94739454 63.38919006]
 [ 9.68543851  2.0499245  53.57030659]
 [ 3.54111095 13.5226146  63.88118659]
 [ 3.25136628  8.15617259 59.42681822]
 [ 5.2278614  14.46571798 64.14804421]
 [ 1.07376079 11.48734408 62.96663735]
 [ 1.0893769  12.15988336 63.58100951]
 [ 0.47849978 11.84573551 63.12318276]
 [ 1.04008037 11.7852727  62.83924214]
 [ 2.48641386 11.03479121 62.63444795]
 [ 5.46914484 14.55231771 64.11010866]
 [ 1.85129259 12.81248014 63.77937377]
 [ 0.90043584 10.79764416 62.23426795]
 [ 3.35425144 10.38312817 61.98274369]
 [ 4.30556201  8.56602174 60.1513947 ]
 [ 2.05547513 11.62197908 63.1975846 ]
 [ 1.95051607 11.38340914 62.95485471]
 [ 1.3071809  12.55202234 63.69232109]
 [ 1.10967117 12.23538517 63.64604414]
 [ 0.93343868 12.2227282  63.5776542 ]
 [ 1.19559599 11.40980082 62.90685106]
 [ 0.56389254 10.87617125 62.23864047]
 [ 0.65778913 11.9712205  63.30954922]
 [ 1.22260307 12.17496333 63.62237003]
 [ 7.74027824 15.39795801 63.6346003 ]
 [ 0.78647152 12.10227609 63.44180443]
 [ 5.4830544   7.97584429 59.44606955]
 [ 0.92278629 11.22651074 62.68822984]
 [ 1.29350109 12.04383595 63.5196366 ]
 [ 5.17890114 14.15329401 63.76560934]
 [ 1.20391656 10.99900485 62.4958414 ]
 [ 3.15775805  8.57005723 60.13196783]
 [ 1.12760265 11.45481083 62.94217629]
 [ 1.09137751 12.30004195 63.68838715]
 [ 1.70637978 10.14138544 61.65547155]
 [ 9.58914804  8.83226222 55.2909485 ]
 [ 1.98999292 11.66149184 63.2318396 ]
 [ 2.7341148  13.26991353 63.96092476]
 [ 5.3954964  14.49875887 64.08559145]
 [ 1.06953186 12.24850338 63.38283474]
 [ 9.07611207 16.80538256 64.54971942]
 [ 3.93908503  9.31601861 60.90248122]
 [ 2.1624763  10.71740399 62.30123118]
 [ 7.40699906 15.70425571 64.32609789]
 [ 2.43610241 13.15091012 63.94998614]
 [ 5.55140079  6.98635041 57.35263961]
 [ 1.91305523 10.56227487 62.12506024]
 [ 1.43973    11.35732935 62.88355254]
 [ 7.51618933 15.63036255 64.13577992]
 [ 3.01343346 13.5242488  64.15715874]
 [ 1.29337371 10.23099357 61.41625521]
 [ 5.05806639 14.33463014 64.07897218]
 [ 1.8967946  11.26598668 62.83437347]
 [ 3.21545678 13.5711845  64.11427747]
 [ 1.57677402 12.59692184 63.61909472]
 [ 1.98702124 11.43889339 63.01233598]
 [ 0.71070116 11.98369681 63.18689415]
 [ 1.36516318 11.29118198 62.80982479]
 [ 3.05765599  8.31303837 59.69919134]
 [ 2.81239077 10.3424048  61.94733376]
 [ 1.14798108 12.38521214 63.53517425]
 [67.78210634 56.67780068  5.19569705]
 [ 1.56592141 11.78601053 63.31437022]
 [ 1.11304925 11.6815488  63.15802252]
 [ 0.99503509 12.31202201 63.516734  ]
 [ 0.96777031 12.29849076 63.63121961]
 [ 0.83650568 12.16892214 63.49937863]
 [ 0.33631292 11.65433038 62.90659549]
 [ 9.95505642 17.46619735 64.7547881 ]
 [ 1.76855266 11.54636941 62.35982193]
 [ 1.64232058 11.66788675 63.20832146]
 [ 2.47150513 10.26090449 61.85493748]
 [ 2.08202757 10.85885938 62.4390635 ]
 [ 0.2095655  11.47266412 62.80504333]
 [ 7.510309   15.48374722 63.93401589]
 [ 2.18894476 11.5917904  63.17604732]
 [ 1.76981623 12.87756437 63.91051475]
 [ 2.30635634 13.02317232 63.84373492]
 [ 2.11376261 11.36253668 62.94472775]
 [ 2.4756561  13.13810801 63.91379968]
 [ 0.96715368 12.3354578  63.60225342]
 [ 1.09915172 12.45727567 63.76383591]
 [ 3.37188102 10.55121444 62.14946651]
 [ 0.941721   11.73239641 63.17944827]
 [ 2.18404694 11.1369058  62.7238746 ]
 [ 2.71159411 11.1215285  62.72619317]
 [ 2.9080345  13.39091454 64.0335266 ]
 [ 5.33137081 14.03039734 63.51288847]]

RÓTULO DADO PELO KMEANS DAS AMOSTRAS

[1 0 0 0 1 0 0 0 0 0 0 0 0 0 0 0 0 1 0 0 0 0 0 0 0 0 0 2 0 0 0 1 0 1 0 1 0
 0 0 0 0 0 0 1 0 0 0 0 0 0 0 0 0 0 1 1 2 0 0 0 0 0 0 0 0 0 0 0 0 0 0 0 1 0
 0 0 0 0 0 0 0 0 0 0 0 0 0 1 0 0 0 0 1 0 0 0 0 0 0 0 0 0 0 0 0 0 0 0 1 0 0
 0 0 1 0 0 0 0 0 0 0 0 0 0 0 0 0 0 0 0 0 0 0 0 0 0 0 0 0 0 0 0 0 0 0 0 0 1
 0 0 0 0 0 0 0 0 0 0 0 0 0 0 0 0 0 0 0 0 0 0 0 0 0 2 0 0 0 0 0 0 0 0 0 0 0
 0 0 0 0 0 0 0 0 0 0 0 0 0 0 0]
[1 0 0 0 1 0 0 0 0 0 0 0 0 0 0 0 0 1 0 0 0 0 0 0 0 0 0 2 0 0 0 1 0 1 0 1 0
 0 0 0 0 0 0 1 0 0 0 0 0 0 0 0 0 0 1 1 2 0 0 0 0 0 0 0 0 0 0 0 0 0 0 0 1 0
 0 0 0 0 0 0 0 0 0 0 0 0 0 1 0 0 0 0 1 0 0 0 0 0 0 0 0 0 0 0 0 0 0 0 1 0 0
 0 0 1 0 0 0 0 0 0 0 0 0 0 0 0 0 0 0 0 0 0 0 0 0 0 0 0 0 0 0 0 0 0 0 0 0 1
 0 0 0 0 0 0 0 0 0 0 0 0 0 0 0 0 0 0 0 0 0 0 0 0 0 2 0 0 0 0 0 0 0 0 0 0 0
 0 0 0 0 0 0 0 0 0 0 0 0 0 0 0]
