
#######Tipo de Nomalização MinMaxScaler#############

[[6.57272289e-03 2.23712469e-03 6.59181822e-01 ... 6.73551934e-01
  5.66943575e-01 1.15645052e-01]
 [4.44459608e-04 6.31201435e-02 2.00927422e-01 ... 2.02737996e-01
  7.95806712e-01 9.48600584e-02]
 [4.09561243e-04 1.13675890e-02 2.58902964e-01 ... 2.60242936e-01
  7.77959763e-01 1.97075611e-01]
 ...
 [1.18625073e-04 9.53668526e-02 8.99734373e-02 ... 9.06216283e-02
  8.43532872e-01 1.05155285e-01]
 [1.30684621e-04 4.87100520e-02 9.22593895e-02 ... 8.63910881e-02
  8.48402333e-01 2.29879035e-01]
 [7.69745135e-03 4.96915572e-02 2.29004307e-01 ... 2.07539353e-01
  7.34944083e-01 5.46670628e-01]]
Elbow Method: Número de Cluster - 2 Valor - 1909.3091323122462

Elbow Method: Número de Cluster - 3 Valor - 1469.5978083973348

Elbow Method: Número de Cluster - 4 Valor - 1245.8497120912593

Elbow Method: Número de Cluster - 5 Valor - 1053.5453566281374

Elbow Method: Número de Cluster - 6 Valor - 955.9172688023181

Elbow Method: Número de Cluster - 7 Valor - 863.9411576876324

Elbow Method: Número de Cluster - 8 Valor - 781.9523770944186

Elbow Method: Número de Cluster - 9 Valor - 727.5694149269697

Elbow Method: Número de Cluster - 10 Valor - 675.8970358449325

VARIÂNCIA DAS MELHORES FEATURES
[0.55082177 0.32878516]

COORDENADA DOS CENTROIDES

[[ 0.14717637 -0.15584505]
 [ 0.25652804  0.24744954]
 [-0.19748276  0.02901775]]

TABELA DE DISTÂNCIAS

[[0.89959429 0.51627218 0.57141642]
 [0.31306054 0.7041323  0.37487131]
 [0.17192642 0.44642141 0.22161384]
 ...
 [0.25151887 0.75493982 0.56448264]
 [0.17114161 0.65781793 0.55208374]
 [0.4976808  0.33334699 0.64797412]]

RÓTULO DADO PELO KMEANS DAS AMOSTRAS

[1 0 0 ... 0 0 1]
[1 0 0 ... 0 0 1]

#######Tipo de Nomalização StandardScaler#############

[[ 0.07629037 -0.69786865  3.0334571  ...  3.21660339 -2.48825153
  -1.17533964]
 [-0.13668013  0.62173977 -0.65742821 ... -0.60422775  0.52622668
  -1.35173528]
 [-0.13789292 -0.49997049 -0.19047999 ... -0.13755367  0.29115502
  -0.48426432]
 ...
 [-0.14800358  1.32067076 -1.55107687 ... -1.514094    1.15485335
  -1.26436296]
 [-0.14758449  0.30940838 -1.53266529 ... -1.54842641  1.21899161
  -0.20587208]
 [ 0.11537713  0.330682   -0.43129058 ... -0.56526295 -0.2754274
   2.48263766]]
Elbow Method: Número de Cluster - 2 Valor - 276567.43023942335

Elbow Method: Número de Cluster - 3 Valor - 213538.5633017778

Elbow Method: Número de Cluster - 4 Valor - 172797.80405008985

Elbow Method: Número de Cluster - 5 Valor - 145901.27050677495

Elbow Method: Número de Cluster - 6 Valor - 127751.23250791352

Elbow Method: Número de Cluster - 7 Valor - 114560.84698289595

Elbow Method: Número de Cluster - 8 Valor - 105139.53966754887

Elbow Method: Número de Cluster - 9 Valor - 92251.92550950883

Elbow Method: Número de Cluster - 10 Valor - 85966.77307075635

VARIÂNCIA DAS MELHORES FEATURES
[0.49023528 0.24522503]

COORDENADA DOS CENTROIDES

[[-2.25056066  0.61546795]
 [15.06922876 15.40138231]
 [ 1.46350499 -0.5719493 ]]

TABELA DE DISTÂNCIAS

[[18.64055363  4.26148378  8.08373775]
 [23.7322892   3.47231588  1.76419675]
 [22.43699221  1.8323868   2.44752822]
 ...
 [24.45544678  5.73430844  1.96854658]
 [23.6991221   4.77748015  1.01676547]
 [19.39702169  3.63542691  3.37455808]]

RÓTULO DADO PELO KMEANS DAS AMOSTRAS

[1 2 1 ... 2 2 2]
[1 2 1 ... 2 2 2]

#######Tipo de Nomalização MaxAbsScaler#############

[[6.62619731e-03 2.65708659e-03 6.69366104e-01 ... 6.84073435e-01
  6.13925826e-01 1.16210750e-01]
 [4.98263907e-04 6.35144796e-02 2.24805200e-01 ... 2.28433946e-01
  8.17959623e-01 9.54390521e-02]
 [4.63367421e-04 1.17837079e-02 2.81048324e-01 ... 2.84085487e-01
  8.02048888e-01 1.97589221e-01]
 ...
 [1.72446912e-04 9.57476159e-02 1.17166726e-01 ... 1.19931116e-01
  8.60507976e-01 1.05727693e-01]
 [1.84505810e-04 4.91104532e-02 1.19384370e-01 ... 1.15836928e-01
  8.64849150e-01 2.30371660e-01]
 [7.75086524e-03 5.00915453e-02 2.52043095e-01 ... 2.33080554e-01
  7.63699975e-01 5.46960611e-01]]
Elbow Method: Número de Cluster - 2 Valor - 1814.0611155841088

Elbow Method: Número de Cluster - 3 Valor - 1381.9480242672946

Elbow Method: Número de Cluster - 4 Valor - 1175.8820984197541

Elbow Method: Número de Cluster - 5 Valor - 995.3795895703032

Elbow Method: Número de Cluster - 6 Valor - 902.4321684324352

Elbow Method: Número de Cluster - 7 Valor - 819.6777262545983

Elbow Method: Número de Cluster - 8 Valor - 739.2640914855472

Elbow Method: Número de Cluster - 9 Valor - 687.5166751887158

Elbow Method: Número de Cluster - 10 Valor - 638.5191005553385

VARIÂNCIA DAS MELHORES FEATURES
[0.53500196 0.34228235]

COORDENADA DOS CENTROIDES

[[ 0.1347054  -0.15625945]
 [ 0.24697871  0.24055232]
 [-0.1892376   0.03199636]]

TABELA DE DISTÂNCIAS

[[0.50593025 0.86412615 0.55167684]
 [0.68612761 0.30843442 0.3598305 ]
 [0.43124852 0.16880047 0.20789619]
 ...
 [0.72574462 0.24289988 0.53735905]
 [0.6276072  0.1617949  0.52615132]
 [0.32421045 0.49012594 0.64062317]]

RÓTULO DADO PELO KMEANS DAS AMOSTRAS

[0 1 1 ... 1 1 0]
[0 1 1 ... 1 1 0]

#######Tipo de Nomalização RobustScaler#############

[[ 4.47969367 -0.62073514  2.28836183 ...  2.43399381 -2.16016663
  -0.84317786]
 [-0.24460497  1.48859603 -0.42835231 ... -0.38817063  0.38737695
  -0.98659746]
 [-0.27150824 -0.30440435 -0.08465027 ... -0.04347312  0.18871726
  -0.28129467]
 ...
 [-0.4957919   2.60580392 -1.08613162 ... -1.06022131  0.91863103
  -0.91555884]
 [-0.48649516  0.98934918 -1.07257959 ... -1.08558012  0.97283444
  -0.05494608]
 [ 5.3467506   1.02335406 -0.26190139 ... -0.35939022 -0.29010305
   2.13096388]]
Elbow Method: Número de Cluster - 2 Valor - 11646745.233748356

Elbow Method: Número de Cluster - 3 Valor - 5483997.171843241

Elbow Method: Número de Cluster - 4 Valor - 3385970.2423494356

Elbow Method: Número de Cluster - 5 Valor - 2536467.982210072

Elbow Method: Número de Cluster - 6 Valor - 2411235.7088620723

Elbow Method: Número de Cluster - 7 Valor - 1788604.4829252278

Elbow Method: Número de Cluster - 8 Valor - 1562750.4778458446

Elbow Method: Número de Cluster - 9 Valor - 1400792.1984093625

Elbow Method: Número de Cluster - 10 Valor - 1329581.774796877

VARIÂNCIA DAS MELHORES FEATURES
[0.98438151 0.0060984 ]

COORDENADA DOS CENTROIDES

[[-2.49269800e+00 -5.48202131e-03]
 [ 8.53293861e+02  2.87521566e+00]
 [ 2.54354151e+02  3.61026881e-01]]

TABELA DE DISTÂNCIAS

[[  5.35301465 252.96856828 851.90137597]
 [  3.26122867 259.52414598 858.46010752]
 [  2.88167782 259.52375718 858.46857622]
 ...
 [  5.27830331 259.96913713 858.88056699]
 [  3.64855633 259.97727464 858.91315219]
 [  4.07714926 252.85383952 851.79562749]]

RÓTULO DADO PELO KMEANS DAS AMOSTRAS

[0 0 0 ... 0 0 0]
[0 0 0 ... 0 0 0]
