
#######Dados#############

[[5.58779273e-03 1.37061070e+01 6.52002881e-01 ... 6.70353674e-01
  6.37856392e+00 7.13689543e+03]
 [1.25560748e-03 6.01646985e+01 3.34358282e-01 ... 3.22322869e-01
  8.09299845e+00 2.82477668e+04]
 [4.97125870e-04 1.47870028e+02 2.47555925e-01 ... 2.46521246e-01
  8.26875755e+00 1.31085682e+04]
 ...
 [8.62491349e-04 3.28036578e+01 3.83570257e-01 ... 3.84153389e-01
  7.74048455e+00 7.17959821e+03]
 [1.38009551e-04 2.49266695e+02 1.22783581e-01 ... 1.23527823e-01
  9.22958775e+00 2.11340430e+04]
 [4.50628958e-04 5.02613417e+02 2.21965990e-01 ... 2.17422580e-01
  8.99599968e+00 1.00089190e+04]]
Elbow Method: Número de Cluster - 2 Valor - 13163635839.678707

Elbow Method: Número de Cluster - 3 Valor - 8959725316.366627

Elbow Method: Número de Cluster - 4 Valor - 6394154108.125971

Elbow Method: Número de Cluster - 5 Valor - 5118651570.590591

Elbow Method: Número de Cluster - 6 Valor - 4473028124.688736

Elbow Method: Número de Cluster - 7 Valor - 3938125972.2857018

Elbow Method: Número de Cluster - 8 Valor - 3522912237.1074743

Elbow Method: Número de Cluster - 9 Valor - 3270802302.7955503

Elbow Method: Número de Cluster - 10 Valor - 2975206826.9857683

VARIÂNCIA DAS MELHORES FEATURES
[0.89786074 0.07959059]

COORDENADA DOS CENTROIDES

[[  1471.34996577    386.48464065]
 [-10109.51336918   -263.79836551]
 [ 19384.21311201   -395.12870197]]

TABELA DE DISTÂNCIAS

[[19872.8227624  23918.11202039 16646.80514892]
 [ 2574.26172466 29386.16267141 18079.05578286]
 [24175.22993449  5279.4554877   6566.06301281]
 [22609.8952006   6730.93468393  4778.39921803]
 [18671.30305995 11544.1226487   4246.33333685]
 [24284.77228547  5575.17986836  6969.54081876]
 [ 7506.634293   26143.39559649 15000.83316921]
 [28992.62168654  2931.66093451 11246.14358785]
 [33996.29045155  4685.43286517 16187.5795218 ]
 [22968.0676115   6571.04971386  5537.14671684]
 [19609.00912793 10512.56418103  4232.89981552]
 [27128.06475997 17541.38894273 15817.63706356]
 [37457.76662496  8189.51109251 19685.62791644]
 [24923.10637065  4391.90800078  7114.18011359]
 [ 3898.58057975 25633.19003606 14129.78959717]
 [19515.41505913 11739.63911453  4674.08291982]
 [34621.69715197  5457.806301   16890.88877588]
 [ 7026.52390451 22927.88203843 11753.94179097]
 [25055.24374902  4265.15077331  7239.34767515]
 [21193.26926649  8445.91317911  4204.73555261]
 [21635.73024609 10002.16100477  5723.12499898]
 [20891.16659697  8536.15552471  3076.39386772]
 [23211.82554662  6162.26165189  5561.71552856]
 [13295.0325211  16190.83166881  5145.48415264]
 [ 3957.24315559 25356.17271289 13891.64220841]
 [ 3798.07041783 29810.50246837 18622.21039976]
 [ 3493.25142488 31508.12389046 20197.42291387]
 [37372.46434517 66682.56936902 55207.44543156]
 [36367.21939033  7179.86344492 18634.31576733]
 [21145.43682374  8240.05412993  3310.19905018]
 [32063.42010715  2778.02717299 14274.11850398]
 [10903.75531441 39997.92834989 28610.53136409]
 [34175.70910448  5002.31602151 16438.89044097]
 [14161.04897642 15251.14110147  4162.43795596]
 [ 2856.4386591  26845.55977316 15341.42737618]
 [34102.34481237  4827.09228942 16270.32656726]
 [27357.96162505  2639.0972652   9770.58441334]
 [17547.66452353 11776.71557364   368.61287361]
 [ 5481.42836759 33005.6282517  21548.09020595]
 [ 7336.59102537 22076.60395226 10703.96481503]
 [28829.36454932  7057.60519031 12680.48468298]
 [23760.13057359  5581.35452137  6044.29376066]
 [31124.89917305  1821.07756426 13307.2040966 ]
 [ 6913.43662796 22398.21589057 10932.67730833]
 [28216.12109676  1794.44896746 10557.16089412]
 [23684.74896689  5682.00823356  6006.07207389]
 [ 1480.78198914 28075.22520171 16578.88436648]
 [12664.95184469 16680.26452638  5354.23009556]
 [31621.37355265  3284.07216238 14044.70306845]
 [25651.19742599  3834.82017936  7813.61497239]
 [24850.64265924  4481.24846822  7099.6865237 ]
 [26208.79009693  4675.80967244  8590.36300766]
 [32968.29662092  3685.09792121 15181.82094605]
 [10842.88151715 18714.97419322  7561.99119118]
 [28895.59000395  1486.55399548 11060.75442319]
 [11319.58363711 18549.95730929  7670.51529229]
 [11749.70125496 40229.21987145 28995.08535364]
 [ 9880.62889803 22326.04568969 11363.07059693]
 [13405.78886852 16146.12834823  4710.50208597]
 [31321.56330697  2126.70586156 13557.42890084]
 [28946.98601414  3149.10529431 11582.35693994]
 [19564.35151468  9869.8501597   2566.51502679]
 [20708.9039117   8816.93644525  2979.21997269]
 [19599.63589246 10026.06015917  2160.94744028]
 [ 7492.98247678 22273.61140285 10791.45387722]
 [ 2551.95157108 31586.73988525 20085.63206586]
 [18230.82952235 47541.40826999 36057.44822792]
 [11948.88324867 17405.61485579  5903.80332482]
 [18750.93312907 11034.75411039  3298.6163972 ]
 [17343.2252054  12668.69844412  2639.35387831]
 [34891.90398109  5684.9476502  17145.15491116]
 [30929.94436679  1659.62112302 13104.586599  ]
 [29252.88092005  1377.56234531 11574.56229802]
 [20980.58270811 10321.57899022  5120.6771262 ]
 [ 4730.45496921 25551.91765996 14319.69504484]
 [19229.92405298 10291.63034822  2685.47175167]
 [12316.03276922 17095.58578334  5868.80640985]
 [20847.51444137 10012.63410332  4588.27767556]
 [28822.34784018   679.36059825 10994.1715066 ]
 [19449.73806896 10794.08715951  3176.3153873 ]
 [17108.97050652 12634.95427652  3281.64299307]
 [38001.99883907  8809.82678923 20271.76116065]
 [21314.80098984  7997.29227076  3564.33066022]
 [32434.4775653   3336.31664007 14596.26295689]
 [25591.1480031   5607.47391314  8141.45587298]
 [ 8285.8369471  21107.49431732  9738.63426693]
 [38215.61486179  8992.25711703 20470.00122208]
 [33378.26273376  4440.21519139 15708.11544959]
 [22295.98823644  7295.91716885  4533.5683899 ]
 [18647.69523619 11041.69824664  3016.74150992]
 [25293.00732889  4023.92500771  7480.85434688]
 [29006.53301411   329.28834991 11193.0477814 ]
 [17428.67671186 11890.88109316  1071.10115612]
 [27330.51182526  3195.85987503  9560.57895878]
 [ 8785.1734891  20582.14394057  9081.47811498]
 [ 6801.7722534  22603.17661224 11100.88852052]
 [32672.03630016  4176.02765826 15100.44336881]
 [ 9581.56680002 19903.59242474  8634.72406384]
 [14236.81353901 15195.24609746  4157.59389389]
 [28914.00221351  8467.15496663 12487.01656463]
 [20728.38962242  8593.98768173  2914.47687313]
 [11841.06541316 17516.18354119  6187.27146435]
 [28572.38236062  9992.77513926 12788.18140011]
 [  267.99833169 29048.38345731 17573.31059822]
 [25391.6181876   5397.94495191  7842.49922694]
 [15992.02774034 14736.38407374  4679.56674954]
 [21138.57080159  8178.73803826  3335.10432425]
 [15431.0009056  13887.30518335  2587.30973713]
 [ 5683.83098617 23756.86993954 12369.9531754 ]
 [23684.01291903  5745.17458584  6077.21367614]
 [10652.3439764  18695.30086565  7323.6041382 ]
 [38425.21087395  9114.74228822 20615.38670646]
 [ 8656.05694408 21396.64753532  9976.89071056]
 [35110.40095415  5831.85604205 17329.51757317]
 [ 3619.59309953 28704.82484682 17241.80599386]
 [16184.77044985 13130.51575935  1698.14050958]
 [18983.9294967  10611.79662766  1675.94216252]
 [20381.31999184 49132.77056082 37662.79541788]
 [21458.89975379  8002.20682115  4099.7986269 ]
 [32875.2110004   3751.53380692 15036.98418363]
 [11149.45399083 25091.86196607 15480.76851075]
 [32259.95059446  2957.54957124 14438.89144742]
 [31295.59608734  3638.11993987 13844.38362999]
 [ 9807.43521969 19522.03456351  8032.43407617]
 [13536.70367902 15774.97481795  4336.75850713]
 [21532.43840893  8362.96833433  4054.71360213]
 [24784.51904535  8442.08841226  9396.49822039]
 [27167.67180607  3029.16715202  9653.94489153]
 [13983.4217111  15418.73566995  3921.11295079]
 [15153.35772657 14184.59238959  2974.7463673 ]
 [18906.34394524 11652.87947138  4884.29439954]
 [20636.21768897  8962.80907216  2987.72491522]
 [13928.98600722 15862.91134684  4609.07351446]
 [ 7212.52215749 36510.75720546 25048.27239398]
 [12880.86407471 16636.46177677  5594.56499979]
 [30624.33524682  6666.81123294 13470.65124407]
 [16046.66697036 15662.24336313  6148.42409969]
 [26368.81623423 10500.80287342 12149.04930356]
 [17666.89888826 13035.33137448  3922.51216442]
 [19167.23908141 10218.97910787  2114.15127966]
 [28597.70689641  2177.71153682 11032.40356392]
 [22147.78829541  8466.89475218  5132.98052698]
 [31311.04358217 12090.65275717 15900.41078385]
 [28763.90270748  1728.0525966  11128.50618105]
 [22069.80905914  8570.84420064  6037.07986531]
 [15142.02703582 14425.13051776  3086.43888142]
 [26247.99895394  3190.48108183  8541.46533499]
 [22728.24797315  7403.56900099  5946.87226517]
 [30997.06952437  3938.72649972 13296.61060595]
 [25192.27178971  4541.19468613  7697.49408561]
 [21568.44810717  8234.20389415  4006.07879635]
 [12070.65780245 17440.34546833  6323.16820381]
 [23094.73173387  9484.12475686  7147.74662107]
 [16832.59968435 13956.21424015  5599.05302417]
 [21448.31792763  7870.74972003  3743.16185388]
 [23504.42162088  5970.98876355  5957.34334632]
 [25774.67750925  3591.52821155  7942.33181254]
 [ 3659.80390671 32204.74983652 20851.41529534]
 [32686.11054492  3475.91902679 14927.77807788]
 [22313.45040175  7125.68016255  4485.90585395]
 [28814.90655836  2611.79693392 11038.1015282 ]
 [28906.34647813   758.29548215 11148.80350233]
 [23938.54671434  5374.08519736  6138.48755545]
 [24526.0751784   4803.2621648   6776.74367839]
 [24530.10369986  7057.12009622  7452.02443002]
 [22487.5065636   6834.1814753   4671.12203251]
 [ 5564.84700196 27376.88238095 16031.7336671 ]
 [22188.49524713  8345.46858942  5098.54783719]
 [23205.79441461  7448.66708821  5954.66749466]
 [13839.94891538 16848.20088303  7024.05383593]
 [21722.03766617  7730.99102779  4312.72738461]
 [ 8768.67479981 21320.83399458 10311.31287921]
 [16648.06366422 14454.98056684  4952.67008126]
 [ 6952.85751682 33642.56640244 22596.7074284 ]
 [28526.22991147  2249.06008158 10971.22461494]
 [35804.28264761  6748.71036764 18121.66232563]
 [11986.09602529 20193.98119257  9570.1338001 ]
 [19153.38515697 10235.97812217  2121.55338308]
 [20410.36102191  8911.10646002  2771.14622897]
 [18056.57785693 11658.84706587  3042.07869816]
 [25700.63321314  4528.02728369  7975.86559522]
 [18987.34955479 10325.47164848  1277.81327213]
 [35583.08906402  6418.7858095  17856.90926973]
 [17839.62790706 11488.53215038  1139.36387132]
 [23371.62610802 10454.7555465   9283.9150743 ]
 [28636.58316497   722.98908291 10848.03104189]
 [24755.56585197  7681.44965777  8016.87003649]
 [24560.52616902  4834.73576125  6881.49114566]
 [31550.74147814  2254.39934745 13728.96261779]
 [22196.70262338  7450.20479806  5003.89459683]
 [11178.07342657 18187.61710337  6684.62461366]
 [24450.420357    4900.9750435   6730.70135667]
 [19429.76008756 10025.29853043  1711.79594979]
 [34310.19822978  5601.38863365 16722.72674952]
 [22838.32246207  6565.82147138  5250.53463844]
 [ 8705.92686828 21675.55907407 10314.90240496]
 [28909.95887849  2563.14674565 11423.45462187]
 [32948.06702423  3696.14753856 15114.59561611]
 [12017.9184963  17660.19042011  6705.661163  ]
 [22254.3134755   9642.88097734  6230.47671316]]

RÓTULO DADO PELO KMEANS DAS AMOSTRAS

[2 0 1 2 2 1 0 1 1 2 2 2 1 1 0 2 1 0 1 2 2 2 2 2 0 0 0 0 1 2 1 0 1 2 0 1 1
 2 0 0 1 1 1 0 1 1 0 2 1 1 1 1 1 2 1 2 0 0 2 1 1 2 2 2 0 0 0 2 2 2 1 1 1 2
 0 2 2 2 1 2 2 1 2 1 1 0 1 1 2 2 1 1 2 1 0 0 1 2 2 1 2 2 1 0 1 2 2 2 0 1 2
 1 0 1 0 2 2 0 2 1 0 1 1 2 2 2 1 1 2 2 2 2 2 0 2 1 2 1 2 2 1 2 1 1 2 2 1 2
 1 1 2 2 2 2 2 2 1 0 1 2 1 1 1 1 1 2 0 2 2 2 2 0 2 0 1 1 2 2 2 2 1 2 1 2 2
 1 1 1 1 2 2 1 2 1 2 0 1 1 2 2]
[2 0 1 2 2 1 0 1 1 2 2 2 1 1 0 2 1 0 1 2 2 2 2 2 0 0 0 0 1 2 1 0 1 2 0 1 1
 2 0 0 1 1 1 0 1 1 0 2 1 1 1 1 1 2 1 2 0 0 2 1 1 2 2 2 0 0 0 2 2 2 1 1 1 2
 0 2 2 2 1 2 2 1 2 1 1 0 1 1 2 2 1 1 2 1 0 0 1 2 2 1 2 2 1 0 1 2 2 2 0 1 2
 1 0 1 0 2 2 0 2 1 0 1 1 2 2 2 1 1 2 2 2 2 2 0 2 1 2 1 2 2 1 2 1 1 2 2 1 2
 1 1 2 2 2 2 2 2 1 0 1 2 1 1 1 1 1 2 0 2 2 2 2 0 2 0 1 1 2 2 2 2 1 2 1 2 2
 1 1 1 1 2 2 1 2 1 2 0 1 1 2 2]
